# Blender v2.79 (sub 0) OBJ File: ''
# www.blender.org
v -0.404764 -0.488874 1.040262
v 0.223128 0.525981 -1.028254
v 0.004774 -0.620722 1.032250
v 0.779968 -0.610162 -0.367158
v 0.704527 -0.581229 0.374458
v 0.402931 -0.786748 -0.346263
v 0.632917 -0.453294 -0.892096
v -0.394081 -0.771366 0.119142
v -0.327623 -0.517492 -0.968571
v -0.650913 -0.379730 -0.884170
v 0.066560 -0.426939 -1.115253
v 0.962036 -0.015097 0.238141
v 0.846129 -0.231578 -0.731846
v 0.704088 0.497500 -0.637780
v 0.714975 -0.371801 0.734169
v 0.512607 0.264100 1.117668
v -0.839030 -0.065600 0.666472
v -0.906666 -0.413675 0.291252
v -0.617574 -0.159685 0.983743
v -0.577226 0.236255 0.823186
v -0.728597 0.038486 -1.022104
v -0.817521 0.537658 -0.619899
v 0.606436 -0.234215 -1.018870
v -0.253000 -0.171399 -1.234468
v 0.142788 1.012465 0.174902
v 0.207312 0.462695 1.144584
v 0.664207 0.779702 -0.089306
v -0.171881 0.826129 0.103807
v 0.118625 0.821391 -0.341108
v 0.123614 0.557915 -0.696842
v 0.594966 0.698090 -0.592127
v -0.276748 0.757742 -0.521175
v -0.276270 0.606167 -1.023273
v -0.450899 0.773404 -0.817700
v -0.662955 0.517181 -0.167469
v 0.003178 0.716863 0.838724
v 0.798486 0.533574 0.350290
v -0.536284 0.453119 -1.020854
v -1.006657 0.027605 -0.105273
v -0.338666 0.379450 1.081208
v -0.180223 -0.213846 1.289302
v 0.044350 0.158238 1.298932
v 0.836046 0.203036 0.686470
v -0.997574 -0.067897 -0.559132
v -0.859829 -0.356587 0.593660
v 0.361121 -0.107692 1.259268
v 0.228787 -0.607753 -0.906043
v -0.239376 -0.502532 -0.419977
v -0.707906 -0.580119 -0.535035
v -0.325161 -0.795178 0.636715
v 0.202424 -0.862281 0.499740
vn -0.3039 -0.8149 -0.4936
vn -0.1714 -0.5807 0.7959
vn -0.5759 -0.2380 0.7821
vn 0.7409 -0.2671 -0.6163
vn 0.1579 0.9863 -0.0476
vn 0.2298 0.9091 -0.3474
vn 0.1569 0.9712 -0.1792
vn -0.1057 0.7984 -0.5928
vn 0.8416 0.5028 -0.1975
vn -0.2470 0.9547 -0.1662
vn 0.1396 0.7967 -0.5881
vn 0.3314 0.9033 -0.2724
vn 0.5000 0.8292 -0.2498
vn -0.3405 0.5667 -0.7503
vn -0.6402 0.5259 -0.5600
vn -0.4369 0.8500 -0.2943
vn -0.1190 0.9890 -0.0882
vn -0.3391 0.9077 0.2471
vn -0.5311 0.8473 -0.0036
vn -0.6139 0.7439 0.2641
vn -0.4541 0.8694 0.1945
vn -0.5345 0.8081 0.2475
vn -0.6628 0.7173 0.2147
vn -0.5824 0.7723 0.2536
vn -0.1864 0.6909 0.6985
vn 0.5391 0.7887 0.2956
vn 0.4494 0.7771 0.4406
vn 0.4497 0.7770 0.4404
vn 0.5104 0.8073 0.2961
vn 0.9384 0.3303 -0.1017
vn 0.5742 0.4656 -0.6734
vn 0.7466 0.2262 -0.6256
vn 0.6120 0.2995 -0.7320
vn 0.0326 0.2629 -0.9643
vn -0.1586 0.2544 -0.9540
vn -0.3421 0.1615 -0.9257
vn -0.7338 0.3421 -0.5869
vn -0.9577 0.2770 -0.0775
vn -0.7662 0.5745 0.2878
vn -0.9792 -0.2014 0.0228
vn -0.9775 -0.0344 0.2082
vn -0.7801 0.5781 0.2393
vn -0.7911 0.5671 0.2293
vn -0.7777 0.3027 0.5510
vn -0.5555 0.1392 0.8198
vn -0.3881 0.2110 0.8971
vn -0.1762 0.5185 0.8367
vn 0.7950 -0.1181 0.5951
vn 0.7904 -0.0913 0.6058
vn 0.7073 0.5419 0.4538
vn 0.9252 -0.1666 0.3410
vn 0.9560 0.2555 0.1444
vn 0.9475 0.3032 -0.1016
vn 0.2496 0.1140 -0.9616
vn 0.3096 -0.4479 -0.8387
vn 0.2290 -0.1615 -0.9599
vn -0.8654 0.2117 -0.4541
vn -0.5070 -0.3535 -0.7861
vn -0.7852 -0.3206 -0.5298
vn -0.7910 -0.4660 -0.3966
vn -0.8631 -0.4932 -0.1083
vn -0.9886 0.0340 0.1467
vn -0.7300 0.3194 0.6042
vn -0.8283 -0.0796 0.5546
vn -0.7059 -0.3507 0.6154
vn 0.2815 0.3097 0.9082
vn 0.0684 -0.0670 0.9954
vn 0.3065 0.2272 0.9244
vn 0.1424 -0.4816 0.8648
vn 0.4787 -0.6114 0.6301
vn 0.9645 0.2088 -0.1618
vn 0.9103 -0.3687 0.1882
vn 0.9145 -0.3899 0.1082
vn 0.9707 -0.2316 -0.0643
vn 0.7887 -0.4924 -0.3681
vn 0.3415 -0.8592 -0.3810
vn 0.2625 -0.6200 -0.7394
vn -0.3821 -0.9081 -0.1715
vn -0.1658 -0.9847 0.0535
vn -0.0554 -0.7763 -0.6280
vn -0.1644 -0.5784 -0.7990
vn -0.4115 -0.4978 -0.7635
vn 0.1632 -0.9866 0.0006
vn -0.4467 -0.7425 -0.4991
vn 0.2407 -0.8944 -0.3769
vn -0.5652 -0.8244 0.0301
vn -0.5635 -0.8253 0.0371
vn -0.6275 -0.7416 0.2372
vn -0.5990 -0.6903 0.4058
vn -0.2451 -0.7949 0.5550
vn 0.3791 -0.8521 -0.3608
vn 0.5027 -0.8603 0.0847
vn 0.4250 -0.9050 0.0199
vn -0.1332 -0.9907 -0.0278
vn -0.0095 -0.9120 0.4102
vn 0.4662 -0.7277 0.5031
vn -0.0821 -0.9908 -0.1079
vn 0.5209 -0.7442 0.4181
usemtl None
s off
f 48//1 6//1 8//1
f 1//2 3//2 41//2
f 1//3 41//3 19//3
f 7//4 23//4 13//4
f 2//5 33//5 30//5
f 27//6 29//6 25//6
f 27//7 31//7 29//7
f 29//8 31//8 30//8
f 27//9 14//9 31//9
f 31//10 2//10 30//10
f 30//11 32//11 29//11
f 30//12 33//12 32//12
f 33//13 34//13 32//13
f 33//14 38//14 34//14
f 38//15 22//15 34//15
f 29//16 28//16 25//16
f 32//17 28//17 29//17
f 34//18 35//18 32//18
f 32//19 35//19 28//19
f 35//20 20//20 28//20
f 34//21 22//21 35//21
f 28//22 36//22 25//22
f 20//23 40//23 28//23
f 28//24 40//24 36//24
f 40//25 26//25 36//25
f 26//26 16//26 36//26
f 36//27 16//27 25//27
f 16//28 37//28 25//28
f 25//29 37//29 27//29
f 37//30 14//30 27//30
f 14//31 2//31 31//31
f 13//32 23//32 14//32
f 23//33 2//33 14//33
f 24//34 33//34 2//34
f 24//35 38//35 33//35
f 24//36 21//36 38//36
f 21//37 22//37 38//37
f 44//38 39//38 22//38
f 39//39 35//39 22//39
f 44//40 18//40 39//40
f 18//41 17//41 39//41
f 39//42 17//42 35//42
f 17//43 20//43 35//43
f 19//44 40//44 20//44
f 19//45 41//45 40//45
f 41//46 42//46 40//46
f 42//47 26//47 40//47
f 15//48 43//48 46//48
f 46//49 43//49 16//49
f 43//50 37//50 16//50
f 15//51 12//51 43//51
f 43//52 12//52 37//52
f 12//53 14//53 37//53
f 2//54 23//54 24//54
f 7//55 11//55 23//55
f 23//56 11//56 24//56
f 21//57 44//57 22//57
f 24//58 10//58 21//58
f 21//59 10//59 44//59
f 10//60 49//60 44//60
f 49//61 18//61 44//61
f 18//62 45//62 17//62
f 17//63 19//63 20//63
f 45//64 19//64 17//64
f 45//65 1//65 19//65
f 42//66 16//66 26//66
f 41//67 46//67 42//67
f 42//68 46//68 16//68
f 41//69 3//69 46//69
f 3//70 15//70 46//70
f 12//71 13//71 14//71
f 15//72 5//72 12//72
f 5//73 4//73 12//73
f 12//74 4//74 13//74
f 4//75 7//75 13//75
f 6//76 47//76 7//76
f 47//77 11//77 7//77
f 6//78 48//78 47//78
f 48//79 9//79 47//79
f 47//80 9//80 11//80
f 9//81 24//81 11//81
f 9//82 10//82 24//82
f 48//83 49//83 9//83
f 9//84 49//84 10//84
f 48//85 8//85 49//85
f 49//86 8//86 18//86
f 8//87 50//87 18//87
f 18//88 50//88 45//88
f 50//89 1//89 45//89
f 50//90 3//90 1//90
f 4//91 6//91 7//91
f 5//92 51//92 4//92
f 4//93 51//93 6//93
f 8//94 51//94 50//94
f 50//95 51//95 3//95
f 51//96 15//96 3//96
f 8//97 6//97 51//97
f 51//98 5//98 15//98
