\relax 
\providecommand\hyper@newdestlabel[2]{}
\providecommand\HyperFirstAtBeginDocument{\AtBeginDocument}
\HyperFirstAtBeginDocument{\ifx\hyper@anchor\@undefined
\global\let\oldcontentsline\contentsline
\gdef\contentsline#1#2#3#4{\oldcontentsline{#1}{#2}{#3}}
\global\let\oldnewlabel\newlabel
\gdef\newlabel#1#2{\newlabelxx{#1}#2}
\gdef\newlabelxx#1#2#3#4#5#6{\oldnewlabel{#1}{{#2}{#3}}}
\AtEndDocument{\ifx\hyper@anchor\@undefined
\let\contentsline\oldcontentsline
\let\newlabel\oldnewlabel
\fi}
\fi}
\global\let\hyper@last\relax 
\gdef\HyperFirstAtBeginDocument#1{#1}
\providecommand\HyField@AuxAddToFields[1]{}
\providecommand\HyField@AuxAddToCoFields[2]{}
\@writefile{toc}{\contentsline {section}{\numberline {1}Formal Game Proposal}{3}{section.1}}
\@writefile{toc}{\contentsline {subsection}{\numberline {1.1}Game Description}{3}{subsection.1.1}}
\newlabel{sec:GD}{{1.1}{3}{Game Description}{subsection.1.1}{}}
\@writefile{toc}{\contentsline {paragraph}{Game Loop}{3}{section*.2}}
\@writefile{toc}{\contentsline {subsubsection}{\numberline {1.1.1}Setting}{3}{subsubsection.1.1.1}}
\@writefile{toc}{\contentsline {subsubsection}{\numberline {1.1.2}Environment}{3}{subsubsection.1.1.2}}
\@writefile{toc}{\contentsline {subsubsection}{\numberline {1.1.3}Orbit Mechanics}{3}{subsubsection.1.1.3}}
\@writefile{lof}{\contentsline {figure}{\numberline {1}{\ignorespaces How Kerbal Space Program represents orbits\relax }}{4}{figure.caption.4}}
\providecommand*\caption@xref[2]{\@setref\relax\@undefined{#1}}
\newlabel{fig:orbitsKSP}{{1}{4}{How Kerbal Space Program represents orbits\relax }{figure.caption.4}{}}
\@writefile{toc}{\contentsline {subsubsection}{\numberline {1.1.4}Asteroid Base}{4}{subsubsection.1.1.4}}
\@writefile{toc}{\contentsline {paragraph}{Movement/Controls}{4}{section*.3}}
\newlabel{sec:buildings}{{1.1.4}{4}{Modules}{section*.5}{}}
\@writefile{toc}{\contentsline {paragraph}{Modules}{4}{section*.5}}
\@writefile{toc}{\contentsline {subsubsection}{\numberline {1.1.5}Resources and Collection}{5}{subsubsection.1.1.5}}
\@writefile{toc}{\contentsline {subsubsection}{\numberline {1.1.6}Gameplay}{5}{subsubsection.1.1.6}}
\@writefile{toc}{\contentsline {subsubsection}{\numberline {1.1.7}Narration}{5}{subsubsection.1.1.7}}
\@writefile{lof}{\contentsline {figure}{\numberline {2}{\ignorespaces How Endless Space handles planets. We might do the base building in a similar fashion.\relax }}{6}{figure.caption.6}}
\newlabel{fig:lists}{{2}{6}{How Endless Space handles planets. We might do the base building in a similar fashion.\relax }{figure.caption.6}{}}
\@writefile{toc}{\contentsline {subsubsection}{\numberline {1.1.8}HUD}{6}{subsubsection.1.1.8}}
\@writefile{toc}{\contentsline {subsubsection}{\numberline {1.1.9}Menus}{6}{subsubsection.1.1.9}}
\@writefile{toc}{\contentsline {subsubsection}{\numberline {1.1.10}Graphics}{6}{subsubsection.1.1.10}}
\@writefile{lof}{\contentsline {figure}{\numberline {3}{\ignorespaces How the neon wire frame rendering might look\relax }}{7}{figure.caption.7}}
\newlabel{fig:wireFrame}{{3}{7}{How the neon wire frame rendering might look\relax }{figure.caption.7}{}}
\@writefile{lof}{\contentsline {figure}{\numberline {4}{\ignorespaces How the flat shading might look\relax }}{8}{figure.caption.8}}
\newlabel{fig:flatShading}{{4}{8}{How the flat shading might look\relax }{figure.caption.8}{}}
\@writefile{lof}{\contentsline {figure}{\numberline {5}{\ignorespaces Black hole idea\relax }}{9}{figure.caption.9}}
\newlabel{fig:blackHoleEXP}{{5}{9}{Black hole idea\relax }{figure.caption.9}{}}
\@writefile{toc}{\contentsline {subsection}{\numberline {1.2}Technical Achievement}{10}{subsection.1.2}}
\@writefile{toc}{\contentsline {subsubsection}{\numberline {1.2.1}Engine}{10}{subsubsection.1.2.1}}
\@writefile{toc}{\contentsline {subsubsection}{\numberline {1.2.2}Physics simulation}{10}{subsubsection.1.2.2}}
\@writefile{toc}{\contentsline {subsection}{\numberline {1.3}"Big Idea" Bullseye}{10}{subsection.1.3}}
\@writefile{toc}{\contentsline {subsection}{\numberline {1.4}Assessment}{10}{subsection.1.4}}
\@writefile{lof}{\contentsline {figure}{\numberline {6}{\ignorespaces "Big Idea" Bullseye\relax }}{11}{figure.caption.10}}
\newlabel{fig:bullseye}{{6}{11}{"Big Idea" Bullseye\relax }{figure.caption.10}{}}
\@writefile{toc}{\contentsline {subsection}{\numberline {1.5}Development Schedule}{12}{subsection.1.5}}
\@writefile{toc}{\contentsline {section}{\numberline {2}Prototype}{13}{section.2}}
\@writefile{toc}{\contentsline {subsection}{\numberline {2.1}Prototyping Goals}{13}{subsection.2.1}}
\@writefile{toc}{\contentsline {subsection}{\numberline {2.2}Setup}{13}{subsection.2.2}}
\@writefile{toc}{\contentsline {subsection}{\numberline {2.3}Game Loop}{13}{subsection.2.3}}
\@writefile{lof}{\contentsline {figure}{\numberline {7}{\ignorespaces The paper game prototype.\relax }}{14}{figure.caption.11}}
\newlabel{fig:gamePrototype}{{7}{14}{The paper game prototype.\relax }{figure.caption.11}{}}
\@writefile{toc}{\contentsline {subsection}{\numberline {2.4}Game Rules}{14}{subsection.2.4}}
\@writefile{toc}{\contentsline {subsubsection}{\numberline {2.4.1}General rules}{14}{subsubsection.2.4.1}}
\@writefile{toc}{\contentsline {subsubsection}{\numberline {2.4.2}Movement phase}{14}{subsubsection.2.4.2}}
\@writefile{toc}{\contentsline {subsubsection}{\numberline {2.4.3}Building phase}{14}{subsubsection.2.4.3}}
\@writefile{toc}{\contentsline {subsubsection}{\numberline {2.4.4}Energy phase}{15}{subsubsection.2.4.4}}
\@writefile{toc}{\contentsline {subsubsection}{\numberline {2.4.5}Orbital transfer}{15}{subsubsection.2.4.5}}
\@writefile{toc}{\contentsline {subsubsection}{\numberline {2.4.6}Random Cards}{15}{subsubsection.2.4.6}}
\@writefile{toc}{\contentsline {subsubsection}{\numberline {2.4.7}Physics}{15}{subsubsection.2.4.7}}
\@writefile{toc}{\contentsline {subsection}{\numberline {2.5}Results}{15}{subsection.2.5}}
\@writefile{toc}{\contentsline {section}{\numberline {3}Interim Report}{17}{section.3}}
\newlabel{sec:interim}{{3}{17}{Interim Report}{section.3}{}}
\@writefile{toc}{\contentsline {subsection}{\numberline {3.1}Implementation}{17}{subsection.3.1}}
\@writefile{toc}{\contentsline {subsection}{\numberline {3.2}Physics engine}{17}{subsection.3.2}}
\@writefile{toc}{\contentsline {subsubsection}{\numberline {3.2.1}Collision}{17}{subsubsection.3.2.1}}
\@writefile{toc}{\contentsline {subsubsection}{\numberline {3.2.2}Orbit mechanics}{18}{subsubsection.3.2.2}}
\@writefile{toc}{\contentsline {subsection}{\numberline {3.3}Entity Component System}{18}{subsection.3.3}}
\@writefile{lof}{\contentsline {figure}{\numberline {8}{\ignorespaces  Wireframe and Flat shading and orbit rendering.\relax }}{19}{figure.caption.12}}
\newlabel{fig:INT.shading}{{8}{19}{Wireframe and Flat shading and orbit rendering.\relax }{figure.caption.12}{}}
\@writefile{toc}{\contentsline {subsection}{\numberline {3.4}Render Engine}{19}{subsection.3.4}}
\@writefile{toc}{\contentsline {subsubsection}{\numberline {3.4.1}Object Rendering}{19}{subsubsection.3.4.1}}
\@writefile{lof}{\contentsline {figure}{\numberline {9}{\ignorespaces Bloom: filter to get only the bright parts of the image (top-left), blurr (top-right) and blended onto the final image (bottom, affected by tonemapping).\relax }}{20}{figure.caption.13}}
\newlabel{fig:INT.bloom}{{9}{20}{Bloom: filter to get only the bright parts of the image (top-left), blurr (top-right) and blended onto the final image (bottom, affected by tonemapping).\relax }{figure.caption.13}{}}
\@writefile{toc}{\contentsline {subsubsection}{\numberline {3.4.2}Postprocessing}{20}{subsubsection.3.4.2}}
\@writefile{lof}{\contentsline {figure}{\numberline {10}{\ignorespaces The raymarched fog alone (left) and blended onto the final image (right)\relax }}{21}{figure.caption.15}}
\newlabel{fig:INT.fog}{{10}{21}{The raymarched fog alone (left) and blended onto the final image (right)\relax }{figure.caption.15}{}}
\@writefile{toc}{\contentsline {paragraph}{Extras:}{21}{figure.caption.15}}
\@writefile{toc}{\contentsline {subsubsection}{\numberline {3.4.3}UI}{21}{subsubsection.3.4.3}}
\@writefile{lof}{\contentsline {figure}{\numberline {11}{\ignorespaces SMAA (left) after bloom, compare to Fig. \ref  {fig:INT.bloom} bottom. Right is the final result with all post processing applied. Compare to Fig. \ref  {fig:INT.fog} right to see the effect of tonemapping.\relax }}{22}{figure.caption.16}}
\newlabel{fig:INT.final}{{11}{22}{SMAA (left) after bloom, compare to \myreffig {INT.bloom} bottom. Right is the final result with all post processing applied. Compare to \myreffig {INT.fog} right to see the effect of tonemapping.\relax }{figure.caption.16}{}}
\@writefile{toc}{\contentsline {subsection}{\numberline {3.5}InputEngine}{22}{subsection.3.5}}
\@writefile{toc}{\contentsline {section}{\numberline {4}Alpha Report}{23}{section.4}}
\newlabel{sec:alpha}{{4}{23}{Alpha Report}{section.4}{}}
\@writefile{toc}{\contentsline {subsection}{\numberline {4.1}Gameplay}{23}{subsection.4.1}}
\@writefile{toc}{\contentsline {subsubsection}{\numberline {4.1.1}Orbit mechanics}{23}{subsubsection.4.1.1}}
\@writefile{toc}{\contentsline {subsubsection}{\numberline {4.1.2}Resources}{23}{subsubsection.4.1.2}}
\@writefile{toc}{\contentsline {subsubsection}{\numberline {4.1.3}Base building}{23}{subsubsection.4.1.3}}
\@writefile{toc}{\contentsline {subsubsection}{\numberline {4.1.4}Asteroids}{23}{subsubsection.4.1.4}}
\@writefile{toc}{\contentsline {subsection}{\numberline {4.2}Renderer}{23}{subsection.4.2}}
\@writefile{lof}{\contentsline {figure}{\numberline {12}{\ignorespaces The current final render result.\relax }}{24}{figure.caption.17}}
\newlabel{fig:ALPHA.final}{{12}{24}{The current final render result.\relax }{figure.caption.17}{}}
\@writefile{toc}{\contentsline {subsubsection}{\numberline {4.2.1}Additions}{24}{subsubsection.4.2.1}}
\@writefile{toc}{\contentsline {paragraph}{Camera.}{24}{section*.18}}
\@writefile{toc}{\contentsline {paragraph}{Bilateral blur.}{24}{section*.19}}
\@writefile{toc}{\contentsline {paragraph}{Particles.}{24}{section*.20}}
\@writefile{toc}{\contentsline {subsubsection}{\numberline {4.2.2}Improvements}{25}{subsubsection.4.2.2}}
\@writefile{toc}{\contentsline {paragraph}{UI.}{25}{section*.21}}
\@writefile{toc}{\contentsline {paragraph}{Cube map rendering.}{25}{section*.22}}
\@writefile{toc}{\contentsline {subsection}{\numberline {4.3}InputEngine}{25}{subsection.4.3}}
\@writefile{toc}{\contentsline {subsubsection}{\numberline {4.3.1}Changes}{25}{subsubsection.4.3.1}}
\@writefile{toc}{\contentsline {paragraph}{InputWrapper.}{25}{section*.23}}
\@writefile{toc}{\contentsline {paragraph}{InputEngine.}{26}{section*.24}}
\@writefile{toc}{\contentsline {subsubsection}{\numberline {4.3.2}Additions}{26}{subsubsection.4.3.2}}
\@writefile{toc}{\contentsline {paragraph}{InputEngine.}{26}{section*.25}}
\@writefile{toc}{\contentsline {paragraph}{UIComponents.}{26}{section*.26}}
\@writefile{toc}{\contentsline {section}{\numberline {5}Playtesting}{27}{section.5}}
\@writefile{toc}{\contentsline {subsection}{\numberline {5.1}Organization}{27}{subsection.5.1}}
\@writefile{toc}{\contentsline {subsubsection}{\numberline {5.1.1}Questions}{27}{subsubsection.5.1.1}}
\@writefile{toc}{\contentsline {subsubsection}{\numberline {5.1.2}Answers}{27}{subsubsection.5.1.2}}
\@writefile{lof}{\contentsline {figure}{\numberline {13}{\ignorespaces The current state of the game\relax }}{28}{figure.caption.27}}
\newlabel{fig:orbitsKSP}{{13}{28}{The current state of the game\relax }{figure.caption.27}{}}
\@writefile{toc}{\contentsline {subsubsection}{\numberline {5.1.3}Changes}{28}{subsubsection.5.1.3}}
\@writefile{toc}{\contentsline {section}{\numberline {6}Release}{29}{section.6}}
\@writefile{toc}{\contentsline {subsection}{\numberline {6.1}Changes since Playtesting}{29}{subsection.6.1}}
\@writefile{toc}{\contentsline {paragraph}{Engine Structure}{29}{section*.28}}
\@writefile{toc}{\contentsline {paragraph}{Balancing}{29}{section*.29}}
\@writefile{toc}{\contentsline {paragraph}{Particle System}{29}{section*.30}}
\@writefile{toc}{\contentsline {subsection}{\numberline {6.2}State of the Game / What We Achieved}{29}{subsection.6.2}}
\@writefile{lof}{\contentsline {figure}{\numberline {14}{\ignorespaces Left: The indicators don't align, therefore there won't be a collision. Right: The indicators align perfectly at the ten second mark, there will be a collision.\relax }}{30}{figure.caption.31}}
\newlabel{fig:alignment}{{14}{30}{Left: The indicators don't align, therefore there won't be a collision. Right: The indicators align perfectly at the ten second mark, there will be a collision.\relax }{figure.caption.31}{}}
\@writefile{toc}{\contentsline {subsection}{\numberline {6.3}Evaluation}{30}{subsection.6.3}}
\@writefile{lof}{\contentsline {figure}{\numberline {15}{\ignorespaces Final visual of our game, including the new GPU particles.\relax }}{31}{figure.caption.32}}
\newlabel{fig:release1}{{15}{31}{Final visual of our game, including the new GPU particles.\relax }{figure.caption.32}{}}
\@writefile{toc}{\contentsline {subsection}{\numberline {6.4}Personal Impressions}{31}{subsection.6.4}}
