^C:\USERS\MORITZ\DOCUMENTS\UNTITELEDGAME\GAME\PCH.CPP
C:\PROGRAM FILES (X86)\MICROSOFT VISUAL STUDIO\2017\COMMUNITY\VC\TOOLS\MSVC\14.15.26726\BIN\HOSTX86\X86\1031\CLUI.DLL
C:\WINDOWS\GLOBALIZATION\SORTING\SORTDEFAULT.NLS
C:\WINDOWS\SYSTEM32\TZRES.DLL
C:\WINDOWS\MICROSOFT.NET\FRAMEWORK\V1.1.4322\MSCORWKS.DLL
C:\WINDOWS\MICROSOFT.NET\FRAMEWORK\V2.0.50727\MSCORWKS.DLL
C:\WINDOWS\MICROSOFT.NET\FRAMEWORK\V4.0.30319\CLR.DLL
C:\PROGRAM FILES (X86)\MICROSOFT VISUAL STUDIO\2017\COMMUNITY\VC\TOOLS\MSVC\14.15.26726\BIN\HOSTX86\X86\CL.EXE.CONFIG
C:\PROGRAM FILES (X86)\MICROSOFT VISUAL STUDIO\2017\COMMUNITY\VC\TOOLS\MSVC\14.15.26726\LIB\X86\STORE\REFERENCES\PLATFORM.WINMD
C:\PROGRAM FILES (X86)\WINDOWS KITS\10\REFERENCES\10.0.17134.0\WINDOWS.FOUNDATION.FOUNDATIONCONTRACT\3.0.0.0\WINDOWS.FOUNDATION.FOUNDATIONCONTRACT.WINMD
C:\PROGRAM FILES (X86)\WINDOWS KITS\10\REFERENCES\10.0.17134.0\WINDOWS.FOUNDATION.UNIVERSALAPICONTRACT\6.0.0.0\WINDOWS.FOUNDATION.UNIVERSALAPICONTRACT.WINMD
C:\PROGRAM FILES (X86)\WINDOWS KITS\10\REFERENCES\10.0.17134.0\WINDOWS.AI.MACHINELEARNING.PREVIEW.MACHINELEARNINGPREVIEWCONTRACT\1.0.0.0\WINDOWS.AI.MACHINELEARNING.PREVIEW.MACHINELEARNINGPREVIEWCONTRACT.WINMD
C:\PROGRAM FILES (X86)\WINDOWS KITS\10\REFERENCES\10.0.17134.0\WINDOWS.APPLICATIONMODEL.CALLS.CALLSVOIPCONTRACT\3.0.0.0\WINDOWS.APPLICATIONMODEL.CALLS.CALLSVOIPCONTRACT.WINMD
C:\PROGRAM FILES (X86)\WINDOWS KITS\10\REFERENCES\10.0.17134.0\WINDOWS.APPLICATIONMODEL.SOCIALINFO.SOCIALINFOCONTRACT\2.0.0.0\WINDOWS.APPLICATIONMODEL.SOCIALINFO.SOCIALINFOCONTRACT.WINMD
C:\PROGRAM FILES (X86)\WINDOWS KITS\10\REFERENCES\10.0.17134.0\WINDOWS.APPLICATIONMODEL.STARTUPTASKCONTRACT\3.0.0.0\WINDOWS.APPLICATIONMODEL.STARTUPTASKCONTRACT.WINMD
C:\PROGRAM FILES (X86)\WINDOWS KITS\10\REFERENCES\10.0.17134.0\WINDOWS.DEVICES.CUSTOM.CUSTOMDEVICECONTRACT\1.0.0.0\WINDOWS.DEVICES.CUSTOM.CUSTOMDEVICECONTRACT.WINMD
C:\PROGRAM FILES (X86)\WINDOWS KITS\10\REFERENCES\10.0.17134.0\WINDOWS.DEVICES.DEVICESLOWLEVELCONTRACT\3.0.0.0\WINDOWS.DEVICES.DEVICESLOWLEVELCONTRACT.WINMD
C:\PROGRAM FILES (X86)\WINDOWS KITS\10\REFERENCES\10.0.17134.0\WINDOWS.DEVICES.PRINTERS.PRINTERSCONTRACT\1.0.0.0\WINDOWS.DEVICES.PRINTERS.PRINTERSCONTRACT.WINMD
C:\PROGRAM FILES (X86)\WINDOWS KITS\10\REFERENCES\10.0.17134.0\WINDOWS.DEVICES.SMARTCARDS.SMARTCARDBACKGROUNDTRIGGERCONTRACT\3.0.0.0\WINDOWS.DEVICES.SMARTCARDS.SMARTCARDBACKGROUNDTRIGGERCONTRACT.WINMD
C:\PROGRAM FILES (X86)\WINDOWS KITS\10\REFERENCES\10.0.17134.0\WINDOWS.DEVICES.SMARTCARDS.SMARTCARDEMULATORCONTRACT\5.0.0.0\WINDOWS.DEVICES.SMARTCARDS.SMARTCARDEMULATORCONTRACT.WINMD
C:\PROGRAM FILES (X86)\WINDOWS KITS\10\REFERENCES\10.0.17134.0\WINDOWS.GAMING.XBOXLIVE.STORAGEAPICONTRACT\1.0.0.0\WINDOWS.GAMING.XBOXLIVE.STORAGEAPICONTRACT.WINMD
C:\PROGRAM FILES (X86)\WINDOWS KITS\10\REFERENCES\10.0.17134.0\WINDOWS.GRAPHICS.PRINTING3D.PRINTING3DCONTRACT\4.0.0.0\WINDOWS.GRAPHICS.PRINTING3D.PRINTING3DCONTRACT.WINMD
C:\PROGRAM FILES (X86)\WINDOWS KITS\10\REFERENCES\10.0.17134.0\WINDOWS.NETWORKING.CONNECTIVITY.WWANCONTRACT\2.0.0.0\WINDOWS.NETWORKING.CONNECTIVITY.WWANCONTRACT.WINMD
C:\PROGRAM FILES (X86)\WINDOWS KITS\10\REFERENCES\10.0.17134.0\WINDOWS.SERVICES.STORE.STORECONTRACT\3.0.0.0\WINDOWS.SERVICES.STORE.STORECONTRACT.WINMD
C:\PROGRAM FILES (X86)\WINDOWS KITS\10\REFERENCES\10.0.17134.0\WINDOWS.SERVICES.TARGETEDCONTENT.TARGETEDCONTENTCONTRACT\1.0.0.0\WINDOWS.SERVICES.TARGETEDCONTENT.TARGETEDCONTENTCONTRACT.WINMD
C:\PROGRAM FILES (X86)\WINDOWS KITS\10\REFERENCES\10.0.17134.0\WINDOWS.SYSTEM.PROFILE.PROFILEHARDWARETOKENCONTRACT\1.0.0.0\WINDOWS.SYSTEM.PROFILE.PROFILEHARDWARETOKENCONTRACT.WINMD
C:\PROGRAM FILES (X86)\WINDOWS KITS\10\REFERENCES\10.0.17134.0\WINDOWS.SYSTEM.PROFILE.PROFILESHAREDMODECONTRACT\2.0.0.0\WINDOWS.SYSTEM.PROFILE.PROFILESHAREDMODECONTRACT.WINMD
C:\PROGRAM FILES (X86)\WINDOWS KITS\10\REFERENCES\10.0.17134.0\WINDOWS.UI.VIEWMANAGEMENT.VIEWMANAGEMENTVIEWSCALINGCONTRACT\1.0.0.0\WINDOWS.UI.VIEWMANAGEMENT.VIEWMANAGEMENTVIEWSCALINGCONTRACT.WINMD
C:\PROGRAM FILES (X86)\MICROSOFT VISUAL STUDIO\2017\COMMUNITY\VC\TOOLS\MSVC\14.15.26726\INCLUDE\VCCORLIB.H
C:\USERS\MORITZ\DOCUMENTS\UNTITELEDGAME\GAME\PCH.H
C:\PROGRAM FILES (X86)\WINDOWS KITS\10\INCLUDE\10.0.17134.0\WINRT\WRL.H
C:\PROGRAM FILES (X86)\WINDOWS KITS\10\INCLUDE\10.0.17134.0\WINRT\WRL\CLIENT.H
C:\PROGRAM FILES (X86)\WINDOWS KITS\10\INCLUDE\10.0.17134.0\UCRT\STDDEF.H
C:\PROGRAM FILES (X86)\WINDOWS KITS\10\INCLUDE\10.0.17134.0\UCRT\CORECRT.H
C:\PROGRAM FILES (X86)\MICROSOFT VISUAL STUDIO\2017\COMMUNITY\VC\TOOLS\MSVC\14.15.26726\INCLUDE\VCRUNTIME.H
C:\PROGRAM FILES (X86)\MICROSOFT VISUAL STUDIO\2017\COMMUNITY\VC\TOOLS\MSVC\14.15.26726\INCLUDE\SAL.H
C:\PROGRAM FILES (X86)\MICROSOFT VISUAL STUDIO\2017\COMMUNITY\VC\TOOLS\MSVC\14.15.26726\INCLUDE\CONCURRENCYSAL.H
C:\PROGRAM FILES (X86)\MICROSOFT VISUAL STUDIO\2017\COMMUNITY\VC\TOOLS\MSVC\14.15.26726\INCLUDE\VADEFS.H
C:\PROGRAM FILES (X86)\WINDOWS KITS\10\INCLUDE\10.0.17134.0\SHARED\WINAPIFAMILY.H
C:\PROGRAM FILES (X86)\WINDOWS KITS\10\INCLUDE\10.0.17134.0\SHARED\WINPACKAGEFAMILY.H
C:\PROGRAM FILES (X86)\WINDOWS KITS\10\INCLUDE\10.0.17134.0\UM\UNKNWN.H
C:\PROGRAM FILES (X86)\WINDOWS KITS\10\INCLUDE\10.0.17134.0\SHARED\RPC.H
C:\PROGRAM FILES (X86)\WINDOWS KITS\10\INCLUDE\10.0.17134.0\UM\WINDOWS.H
C:\PROGRAM FILES (X86)\WINDOWS KITS\10\INCLUDE\10.0.17134.0\SHARED\SDKDDKVER.H
C:\PROGRAM FILES (X86)\MICROSOFT VISUAL STUDIO\2017\COMMUNITY\VC\TOOLS\MSVC\14.15.26726\INCLUDE\EXCPT.H
C:\PROGRAM FILES (X86)\MICROSOFT VISUAL STUDIO\2017\COMMUNITY\VC\TOOLS\MSVC\14.15.26726\INCLUDE\STDARG.H
C:\PROGRAM FILES (X86)\WINDOWS KITS\10\INCLUDE\10.0.17134.0\SHARED\WINDEF.H
C:\PROGRAM FILES (X86)\WINDOWS KITS\10\INCLUDE\10.0.17134.0\SHARED\MINWINDEF.H
C:\PROGRAM FILES (X86)\WINDOWS KITS\10\INCLUDE\10.0.17134.0\SHARED\SPECSTRINGS.H
C:\PROGRAM FILES (X86)\WINDOWS KITS\10\INCLUDE\10.0.17134.0\SHARED\SPECSTRINGS_STRICT.H
C:\PROGRAM FILES (X86)\WINDOWS KITS\10\INCLUDE\10.0.17134.0\SHARED\SPECSTRINGS_UNDEF.H
C:\PROGRAM FILES (X86)\WINDOWS KITS\10\INCLUDE\10.0.17134.0\SHARED\DRIVERSPECS.H
C:\PROGRAM FILES (X86)\WINDOWS KITS\10\INCLUDE\10.0.17134.0\SHARED\SDV_DRIVERSPECS.H
C:\PROGRAM FILES (X86)\WINDOWS KITS\10\INCLUDE\10.0.17134.0\UM\WINNT.H
C:\PROGRAM FILES (X86)\WINDOWS KITS\10\INCLUDE\10.0.17134.0\UCRT\CTYPE.H
C:\PROGRAM FILES (X86)\WINDOWS KITS\10\INCLUDE\10.0.17134.0\UCRT\CORECRT_WCTYPE.H
C:\PROGRAM FILES (X86)\WINDOWS KITS\10\INCLUDE\10.0.17134.0\SHARED\KERNELSPECS.H
C:\PROGRAM FILES (X86)\WINDOWS KITS\10\INCLUDE\10.0.17134.0\SHARED\BASETSD.H
C:\PROGRAM FILES (X86)\WINDOWS KITS\10\INCLUDE\10.0.17134.0\SHARED\GUIDDEF.H
C:\PROGRAM FILES (X86)\WINDOWS KITS\10\INCLUDE\10.0.17134.0\UCRT\STRING.H
C:\PROGRAM FILES (X86)\WINDOWS KITS\10\INCLUDE\10.0.17134.0\UCRT\CORECRT_MEMORY.H
C:\PROGRAM FILES (X86)\WINDOWS KITS\10\INCLUDE\10.0.17134.0\UCRT\CORECRT_MEMCPY_S.H
C:\PROGRAM FILES (X86)\WINDOWS KITS\10\INCLUDE\10.0.17134.0\UCRT\ERRNO.H
C:\PROGRAM FILES (X86)\MICROSOFT VISUAL STUDIO\2017\COMMUNITY\VC\TOOLS\MSVC\14.15.26726\INCLUDE\VCRUNTIME_STRING.H
C:\PROGRAM FILES (X86)\WINDOWS KITS\10\INCLUDE\10.0.17134.0\UCRT\CORECRT_WSTRING.H
C:\PROGRAM FILES (X86)\WINDOWS KITS\10\INCLUDE\10.0.17134.0\SHARED\PSHPACK4.H
C:\PROGRAM FILES (X86)\WINDOWS KITS\10\INCLUDE\10.0.17134.0\SHARED\POPPACK.H
C:\PROGRAM FILES (X86)\WINDOWS KITS\10\INCLUDE\10.0.17134.0\SHARED\PSHPACK2.H
C:\PROGRAM FILES (X86)\WINDOWS KITS\10\INCLUDE\10.0.17134.0\SHARED\PSHPACK8.H
C:\PROGRAM FILES (X86)\WINDOWS KITS\10\INCLUDE\10.0.17134.0\SHARED\PSHPACK1.H
C:\PROGRAM FILES (X86)\WINDOWS KITS\10\INCLUDE\10.0.17134.0\SHARED\APISET.H
C:\PROGRAM FILES (X86)\WINDOWS KITS\10\INCLUDE\10.0.17134.0\SHARED\KTMTYPES.H
C:\PROGRAM FILES (X86)\WINDOWS KITS\10\INCLUDE\10.0.17134.0\UM\WINBASE.H
C:\PROGRAM FILES (X86)\WINDOWS KITS\10\INCLUDE\10.0.17134.0\SHARED\APISETCCONV.H
C:\PROGRAM FILES (X86)\WINDOWS KITS\10\INCLUDE\10.0.17134.0\UM\MINWINBASE.H
C:\PROGRAM FILES (X86)\WINDOWS KITS\10\INCLUDE\10.0.17134.0\UM\PROCESSENV.H
C:\PROGRAM FILES (X86)\WINDOWS KITS\10\INCLUDE\10.0.17134.0\UM\FILEAPI.H
C:\PROGRAM FILES (X86)\WINDOWS KITS\10\INCLUDE\10.0.17134.0\UM\DEBUGAPI.H
C:\PROGRAM FILES (X86)\WINDOWS KITS\10\INCLUDE\10.0.17134.0\UM\UTILAPISET.H
C:\PROGRAM FILES (X86)\WINDOWS KITS\10\INCLUDE\10.0.17134.0\UM\HANDLEAPI.H
C:\PROGRAM FILES (X86)\WINDOWS KITS\10\INCLUDE\10.0.17134.0\UM\ERRHANDLINGAPI.H
C:\PROGRAM FILES (X86)\WINDOWS KITS\10\INCLUDE\10.0.17134.0\UM\FIBERSAPI.H
C:\PROGRAM FILES (X86)\WINDOWS KITS\10\INCLUDE\10.0.17134.0\UM\NAMEDPIPEAPI.H
C:\PROGRAM FILES (X86)\WINDOWS KITS\10\INCLUDE\10.0.17134.0\UM\PROFILEAPI.H
C:\PROGRAM FILES (X86)\WINDOWS KITS\10\INCLUDE\10.0.17134.0\UM\HEAPAPI.H
C:\PROGRAM FILES (X86)\WINDOWS KITS\10\INCLUDE\10.0.17134.0\UM\IOAPISET.H
C:\PROGRAM FILES (X86)\WINDOWS KITS\10\INCLUDE\10.0.17134.0\UM\SYNCHAPI.H
C:\PROGRAM FILES (X86)\WINDOWS KITS\10\INCLUDE\10.0.17134.0\UM\INTERLOCKEDAPI.H
C:\PROGRAM FILES (X86)\WINDOWS KITS\10\INCLUDE\10.0.17134.0\UM\PROCESSTHREADSAPI.H
C:\PROGRAM FILES (X86)\WINDOWS KITS\10\INCLUDE\10.0.17134.0\UM\SYSINFOAPI.H
C:\PROGRAM FILES (X86)\WINDOWS KITS\10\INCLUDE\10.0.17134.0\UM\MEMORYAPI.H
C:\PROGRAM FILES (X86)\WINDOWS KITS\10\INCLUDE\10.0.17134.0\UM\ENCLAVEAPI.H
C:\PROGRAM FILES (X86)\WINDOWS KITS\10\INCLUDE\10.0.17134.0\UM\THREADPOOLLEGACYAPISET.H
C:\PROGRAM FILES (X86)\WINDOWS KITS\10\INCLUDE\10.0.17134.0\UM\THREADPOOLAPISET.H
C:\PROGRAM FILES (X86)\WINDOWS KITS\10\INCLUDE\10.0.17134.0\UM\JOBAPI.H
C:\PROGRAM FILES (X86)\WINDOWS KITS\10\INCLUDE\10.0.17134.0\UM\JOBAPI2.H
C:\PROGRAM FILES (X86)\WINDOWS KITS\10\INCLUDE\10.0.17134.0\UM\WOW64APISET.H
C:\PROGRAM FILES (X86)\WINDOWS KITS\10\INCLUDE\10.0.17134.0\UM\LIBLOADERAPI.H
C:\PROGRAM FILES (X86)\WINDOWS KITS\10\INCLUDE\10.0.17134.0\UM\SECURITYBASEAPI.H
C:\PROGRAM FILES (X86)\WINDOWS KITS\10\INCLUDE\10.0.17134.0\UM\NAMESPACEAPI.H
C:\PROGRAM FILES (X86)\WINDOWS KITS\10\INCLUDE\10.0.17134.0\UM\SYSTEMTOPOLOGYAPI.H
C:\PROGRAM FILES (X86)\WINDOWS KITS\10\INCLUDE\10.0.17134.0\UM\PROCESSTOPOLOGYAPI.H
C:\PROGRAM FILES (X86)\WINDOWS KITS\10\INCLUDE\10.0.17134.0\UM\SECURITYAPPCONTAINER.H
C:\PROGRAM FILES (X86)\WINDOWS KITS\10\INCLUDE\10.0.17134.0\UM\REALTIMEAPISET.H
C:\PROGRAM FILES (X86)\WINDOWS KITS\10\INCLUDE\10.0.17134.0\SHARED\WINERROR.H
C:\PROGRAM FILES (X86)\WINDOWS KITS\10\INCLUDE\10.0.17134.0\UM\TIMEZONEAPI.H
C:\PROGRAM FILES (X86)\WINDOWS KITS\10\INCLUDE\10.0.17134.0\UM\WINGDI.H
C:\PROGRAM FILES (X86)\WINDOWS KITS\10\INCLUDE\10.0.17134.0\UM\WINUSER.H
C:\PROGRAM FILES (X86)\WINDOWS KITS\10\INCLUDE\10.0.17134.0\SHARED\TVOUT.H
C:\PROGRAM FILES (X86)\WINDOWS KITS\10\INCLUDE\10.0.17134.0\UM\WINNLS.H
C:\PROGRAM FILES (X86)\WINDOWS KITS\10\INCLUDE\10.0.17134.0\UM\DATETIMEAPI.H
C:\PROGRAM FILES (X86)\WINDOWS KITS\10\INCLUDE\10.0.17134.0\UM\STRINGAPISET.H
C:\PROGRAM FILES (X86)\WINDOWS KITS\10\INCLUDE\10.0.17134.0\UM\WINCON.H
C:\PROGRAM FILES (X86)\WINDOWS KITS\10\INCLUDE\10.0.17134.0\UM\WINCONTYPES.H
C:\PROGRAM FILES (X86)\WINDOWS KITS\10\INCLUDE\10.0.17134.0\UM\CONSOLEAPI.H
C:\PROGRAM FILES (X86)\WINDOWS KITS\10\INCLUDE\10.0.17134.0\UM\CONSOLEAPI2.H
C:\PROGRAM FILES (X86)\WINDOWS KITS\10\INCLUDE\10.0.17134.0\UM\CONSOLEAPI3.H
C:\PROGRAM FILES (X86)\WINDOWS KITS\10\INCLUDE\10.0.17134.0\UM\WINVER.H
C:\PROGRAM FILES (X86)\WINDOWS KITS\10\INCLUDE\10.0.17134.0\UM\VERRSRC.H
C:\PROGRAM FILES (X86)\WINDOWS KITS\10\INCLUDE\10.0.17134.0\UM\WINREG.H
C:\PROGRAM FILES (X86)\WINDOWS KITS\10\INCLUDE\10.0.17134.0\UM\WINNETWK.H
C:\PROGRAM FILES (X86)\WINDOWS KITS\10\INCLUDE\10.0.17134.0\SHARED\CDERR.H
C:\PROGRAM FILES (X86)\WINDOWS KITS\10\INCLUDE\10.0.17134.0\UM\DDE.H
C:\PROGRAM FILES (X86)\WINDOWS KITS\10\INCLUDE\10.0.17134.0\UM\DDEML.H
C:\PROGRAM FILES (X86)\WINDOWS KITS\10\INCLUDE\10.0.17134.0\UM\DLGS.H
C:\PROGRAM FILES (X86)\WINDOWS KITS\10\INCLUDE\10.0.17134.0\UM\LZEXPAND.H
C:\PROGRAM FILES (X86)\WINDOWS KITS\10\INCLUDE\10.0.17134.0\UM\MMSYSTEM.H
C:\PROGRAM FILES (X86)\WINDOWS KITS\10\INCLUDE\10.0.17134.0\UM\MMSYSCOM.H
C:\PROGRAM FILES (X86)\WINDOWS KITS\10\INCLUDE\10.0.17134.0\UM\NB30.H
C:\PROGRAM FILES (X86)\WINDOWS KITS\10\INCLUDE\10.0.17134.0\SHARED\RPCDCE.H
C:\PROGRAM FILES (X86)\WINDOWS KITS\10\INCLUDE\10.0.17134.0\SHARED\RPCDCEP.H
C:\PROGRAM FILES (X86)\WINDOWS KITS\10\INCLUDE\10.0.17134.0\UM\RPCNSI.H
C:\PROGRAM FILES (X86)\WINDOWS KITS\10\INCLUDE\10.0.17134.0\SHARED\RPCNTERR.H
C:\PROGRAM FILES (X86)\WINDOWS KITS\10\INCLUDE\10.0.17134.0\SHARED\RPCASYNC.H
C:\PROGRAM FILES (X86)\WINDOWS KITS\10\INCLUDE\10.0.17134.0\UM\SHELLAPI.H
C:\PROGRAM FILES (X86)\WINDOWS KITS\10\INCLUDE\10.0.17134.0\UM\WINPERF.H
C:\PROGRAM FILES (X86)\WINDOWS KITS\10\INCLUDE\10.0.17134.0\UM\WINSOCK.H
C:\PROGRAM FILES (X86)\WINDOWS KITS\10\INCLUDE\10.0.17134.0\UM\WINCRYPT.H
C:\PROGRAM FILES (X86)\WINDOWS KITS\10\INCLUDE\10.0.17134.0\UM\NCRYPT.H
C:\PROGRAM FILES (X86)\WINDOWS KITS\10\INCLUDE\10.0.17134.0\SHARED\BCRYPT.H
C:\PROGRAM FILES (X86)\WINDOWS KITS\10\INCLUDE\10.0.17134.0\UM\WINEFS.H
C:\PROGRAM FILES (X86)\WINDOWS KITS\10\INCLUDE\10.0.17134.0\UM\WINSCARD.H
C:\PROGRAM FILES (X86)\WINDOWS KITS\10\INCLUDE\10.0.17134.0\SHARED\WTYPES.H
C:\PROGRAM FILES (X86)\WINDOWS KITS\10\INCLUDE\10.0.17134.0\SHARED\RPCNDR.H
C:\PROGRAM FILES (X86)\WINDOWS KITS\10\INCLUDE\10.0.17134.0\UM\RPCNSIP.H
C:\PROGRAM FILES (X86)\WINDOWS KITS\10\INCLUDE\10.0.17134.0\SHARED\RPCSAL.H
C:\PROGRAM FILES (X86)\WINDOWS KITS\10\INCLUDE\10.0.17134.0\SHARED\WTYPESBASE.H
C:\PROGRAM FILES (X86)\WINDOWS KITS\10\INCLUDE\10.0.17134.0\UM\WINIOCTL.H
C:\PROGRAM FILES (X86)\WINDOWS KITS\10\INCLUDE\10.0.17134.0\SHARED\WINSMCRD.H
C:\PROGRAM FILES (X86)\WINDOWS KITS\10\INCLUDE\10.0.17134.0\UM\WINSPOOL.H
C:\PROGRAM FILES (X86)\WINDOWS KITS\10\INCLUDE\10.0.17134.0\UM\PRSHT.H
C:\PROGRAM FILES (X86)\WINDOWS KITS\10\INCLUDE\10.0.17134.0\UM\OLE2.H
C:\PROGRAM FILES (X86)\WINDOWS KITS\10\INCLUDE\10.0.17134.0\UM\OBJBASE.H
C:\PROGRAM FILES (X86)\WINDOWS KITS\10\INCLUDE\10.0.17134.0\UM\COMBASEAPI.H
C:\PROGRAM FILES (X86)\WINDOWS KITS\10\INCLUDE\10.0.17134.0\UCRT\STDLIB.H
C:\PROGRAM FILES (X86)\WINDOWS KITS\10\INCLUDE\10.0.17134.0\UCRT\CORECRT_MALLOC.H
C:\PROGRAM FILES (X86)\WINDOWS KITS\10\INCLUDE\10.0.17134.0\UCRT\CORECRT_SEARCH.H
C:\PROGRAM FILES (X86)\WINDOWS KITS\10\INCLUDE\10.0.17134.0\UCRT\CORECRT_WSTDLIB.H
C:\PROGRAM FILES (X86)\MICROSOFT VISUAL STUDIO\2017\COMMUNITY\VC\TOOLS\MSVC\14.15.26726\INCLUDE\LIMITS.H
C:\PROGRAM FILES (X86)\WINDOWS KITS\10\INCLUDE\10.0.17134.0\UM\UNKNWNBASE.H
C:\PROGRAM FILES (X86)\WINDOWS KITS\10\INCLUDE\10.0.17134.0\UM\OBJIDLBASE.H
C:\PROGRAM FILES (X86)\WINDOWS KITS\10\INCLUDE\10.0.17134.0\UM\CGUID.H
C:\PROGRAM FILES (X86)\WINDOWS KITS\10\INCLUDE\10.0.17134.0\UM\COML2API.H
C:\PROGRAM FILES (X86)\WINDOWS KITS\10\INCLUDE\10.0.17134.0\UM\OBJIDL.H
C:\PROGRAM FILES (X86)\WINDOWS KITS\10\INCLUDE\10.0.17134.0\UM\PROPIDLBASE.H
C:\PROGRAM FILES (X86)\WINDOWS KITS\10\INCLUDE\10.0.17134.0\UM\OAIDL.H
C:\PROGRAM FILES (X86)\WINDOWS KITS\10\INCLUDE\10.0.17134.0\UM\URLMON.H
C:\PROGRAM FILES (X86)\WINDOWS KITS\10\INCLUDE\10.0.17134.0\UM\OLEIDL.H
C:\PROGRAM FILES (X86)\WINDOWS KITS\10\INCLUDE\10.0.17134.0\UM\SERVPROV.H
C:\PROGRAM FILES (X86)\WINDOWS KITS\10\INCLUDE\10.0.17134.0\UM\MSXML.H
C:\PROGRAM FILES (X86)\WINDOWS KITS\10\INCLUDE\10.0.17134.0\UM\PROPIDL.H
C:\PROGRAM FILES (X86)\WINDOWS KITS\10\INCLUDE\10.0.17134.0\UM\OLEAUTO.H
C:\PROGRAM FILES (X86)\WINDOWS KITS\10\INCLUDE\10.0.17134.0\UM\COMMDLG.H
C:\PROGRAM FILES (X86)\WINDOWS KITS\10\INCLUDE\10.0.17134.0\SHARED\STRALIGN.H
C:\PROGRAM FILES (X86)\WINDOWS KITS\10\INCLUDE\10.0.17134.0\UM\WINSVC.H
C:\PROGRAM FILES (X86)\WINDOWS KITS\10\INCLUDE\10.0.17134.0\UM\MCX.H
C:\PROGRAM FILES (X86)\WINDOWS KITS\10\INCLUDE\10.0.17134.0\UM\IMM.H
C:\PROGRAM FILES (X86)\WINDOWS KITS\10\INCLUDE\10.0.17134.0\UM\IME_CMODES.H
C:\PROGRAM FILES (X86)\WINDOWS KITS\10\INCLUDE\10.0.17134.0\WINRT\WEAKREFERENCE.H
C:\PROGRAM FILES (X86)\WINDOWS KITS\10\INCLUDE\10.0.17134.0\WINRT\INSPECTABLE.H
C:\PROGRAM FILES (X86)\WINDOWS KITS\10\INCLUDE\10.0.17134.0\WINRT\HSTRING.H
C:\PROGRAM FILES (X86)\WINDOWS KITS\10\INCLUDE\10.0.17134.0\WINRT\ROAPI.H
C:\PROGRAM FILES (X86)\WINDOWS KITS\10\INCLUDE\10.0.17134.0\WINRT\ACTIVATION.H
C:\PROGRAM FILES (X86)\WINDOWS KITS\10\INCLUDE\10.0.17134.0\WINRT\WRL\DEF.H
C:\PROGRAM FILES (X86)\WINDOWS KITS\10\INCLUDE\10.0.17134.0\WINRT\WRL\INTERNAL.H
C:\PROGRAM FILES (X86)\WINDOWS KITS\10\INCLUDE\10.0.17134.0\UCRT\CRTDBG.H
C:\PROGRAM FILES (X86)\MICROSOFT VISUAL STUDIO\2017\COMMUNITY\VC\TOOLS\MSVC\14.15.26726\INCLUDE\VCRUNTIME_NEW_DEBUG.H
C:\PROGRAM FILES (X86)\MICROSOFT VISUAL STUDIO\2017\COMMUNITY\VC\TOOLS\MSVC\14.15.26726\INCLUDE\VCRUNTIME_NEW.H
C:\PROGRAM FILES (X86)\WINDOWS KITS\10\INCLUDE\10.0.17134.0\WINRT\WRL\IMPLEMENTS.H
C:\PROGRAM FILES (X86)\WINDOWS KITS\10\INCLUDE\10.0.17134.0\WINRT\WINSTRING.H
C:\PROGRAM FILES (X86)\WINDOWS KITS\10\INCLUDE\10.0.17134.0\UCRT\NEW.H
C:\PROGRAM FILES (X86)\MICROSOFT VISUAL STUDIO\2017\COMMUNITY\VC\TOOLS\MSVC\14.15.26726\INCLUDE\CRTDEFS.H
C:\PROGRAM FILES (X86)\MICROSOFT VISUAL STUDIO\2017\COMMUNITY\VC\TOOLS\MSVC\14.15.26726\INCLUDE\INTRIN.H
C:\PROGRAM FILES (X86)\MICROSOFT VISUAL STUDIO\2017\COMMUNITY\VC\TOOLS\MSVC\14.15.26726\INCLUDE\INTRIN0.H
C:\PROGRAM FILES (X86)\MICROSOFT VISUAL STUDIO\2017\COMMUNITY\VC\TOOLS\MSVC\14.15.26726\INCLUDE\SETJMP.H
C:\PROGRAM FILES (X86)\MICROSOFT VISUAL STUDIO\2017\COMMUNITY\VC\TOOLS\MSVC\14.15.26726\INCLUDE\IMMINTRIN.H
C:\PROGRAM FILES (X86)\MICROSOFT VISUAL STUDIO\2017\COMMUNITY\VC\TOOLS\MSVC\14.15.26726\INCLUDE\WMMINTRIN.H
C:\PROGRAM FILES (X86)\MICROSOFT VISUAL STUDIO\2017\COMMUNITY\VC\TOOLS\MSVC\14.15.26726\INCLUDE\NMMINTRIN.H
C:\PROGRAM FILES (X86)\MICROSOFT VISUAL STUDIO\2017\COMMUNITY\VC\TOOLS\MSVC\14.15.26726\INCLUDE\SMMINTRIN.H
C:\PROGRAM FILES (X86)\MICROSOFT VISUAL STUDIO\2017\COMMUNITY\VC\TOOLS\MSVC\14.15.26726\INCLUDE\TMMINTRIN.H
C:\PROGRAM FILES (X86)\MICROSOFT VISUAL STUDIO\2017\COMMUNITY\VC\TOOLS\MSVC\14.15.26726\INCLUDE\PMMINTRIN.H
C:\PROGRAM FILES (X86)\MICROSOFT VISUAL STUDIO\2017\COMMUNITY\VC\TOOLS\MSVC\14.15.26726\INCLUDE\EMMINTRIN.H
C:\PROGRAM FILES (X86)\MICROSOFT VISUAL STUDIO\2017\COMMUNITY\VC\TOOLS\MSVC\14.15.26726\INCLUDE\XMMINTRIN.H
C:\PROGRAM FILES (X86)\MICROSOFT VISUAL STUDIO\2017\COMMUNITY\VC\TOOLS\MSVC\14.15.26726\INCLUDE\MMINTRIN.H
C:\PROGRAM FILES (X86)\WINDOWS KITS\10\INCLUDE\10.0.17134.0\UCRT\MALLOC.H
C:\PROGRAM FILES (X86)\MICROSOFT VISUAL STUDIO\2017\COMMUNITY\VC\TOOLS\MSVC\14.15.26726\INCLUDE\ZMMINTRIN.H
C:\PROGRAM FILES (X86)\MICROSOFT VISUAL STUDIO\2017\COMMUNITY\VC\TOOLS\MSVC\14.15.26726\INCLUDE\AMMINTRIN.H
C:\PROGRAM FILES (X86)\MICROSOFT VISUAL STUDIO\2017\COMMUNITY\VC\TOOLS\MSVC\14.15.26726\INCLUDE\MM3DNOW.H
C:\PROGRAM FILES (X86)\WINDOWS KITS\10\INCLUDE\10.0.17134.0\WINRT\ROERRORAPI.H
C:\PROGRAM FILES (X86)\WINDOWS KITS\10\INCLUDE\10.0.17134.0\UM\RESTRICTEDERRORINFO.H
C:\PROGRAM FILES (X86)\WINDOWS KITS\10\INCLUDE\10.0.17134.0\WINRT\WRL\MODULE.H
C:\PROGRAM FILES (X86)\WINDOWS KITS\10\INCLUDE\10.0.17134.0\WINRT\WRL\FTM.H
C:\PROGRAM FILES (X86)\WINDOWS KITS\10\INCLUDE\10.0.17134.0\WINRT\WRL\WRAPPERS\COREWRAPPERS.H
C:\PROGRAM FILES (X86)\WINDOWS KITS\10\INCLUDE\10.0.17134.0\SHARED\INTSAFE.H
C:\PROGRAM FILES (X86)\WINDOWS KITS\10\INCLUDE\10.0.17134.0\WINRT\WRL\EVENT.H
C:\PROGRAM FILES (X86)\WINDOWS KITS\10\INCLUDE\10.0.17134.0\WINRT\EVENTTOKEN.H
C:\PROGRAM FILES (X86)\WINDOWS KITS\10\INCLUDE\10.0.17134.0\SHARED\DXGI1_4.H
C:\PROGRAM FILES (X86)\WINDOWS KITS\10\INCLUDE\10.0.17134.0\SHARED\DXGI1_3.H
C:\PROGRAM FILES (X86)\WINDOWS KITS\10\INCLUDE\10.0.17134.0\SHARED\DXGI1_2.H
C:\PROGRAM FILES (X86)\WINDOWS KITS\10\INCLUDE\10.0.17134.0\SHARED\DXGI.H
C:\PROGRAM FILES (X86)\WINDOWS KITS\10\INCLUDE\10.0.17134.0\UM\OCIDL.H
C:\PROGRAM FILES (X86)\WINDOWS KITS\10\INCLUDE\10.0.17134.0\SHARED\DXGICOMMON.H
C:\PROGRAM FILES (X86)\WINDOWS KITS\10\INCLUDE\10.0.17134.0\SHARED\DXGITYPE.H
C:\PROGRAM FILES (X86)\WINDOWS KITS\10\INCLUDE\10.0.17134.0\SHARED\DXGIFORMAT.H
C:\PROGRAM FILES (X86)\WINDOWS KITS\10\INCLUDE\10.0.17134.0\UM\D3D12.H
C:\PROGRAM FILES (X86)\WINDOWS KITS\10\INCLUDE\10.0.17134.0\UM\D3DCOMMON.H
C:\PROGRAM FILES (X86)\WINDOWS KITS\10\INCLUDE\10.0.17134.0\UM\D3D12SDKLAYERS.H
C:\USERS\MORITZ\DOCUMENTS\UNTITELEDGAME\GAME\COMMON\D3DX12.H
C:\PROGRAM FILES (X86)\WINDOWS KITS\10\INCLUDE\10.0.17134.0\UM\PIX.H
C:\PROGRAM FILES (X86)\WINDOWS KITS\10\INCLUDE\10.0.17134.0\UM\PIX_WIN.H
C:\PROGRAM FILES (X86)\MICROSOFT VISUAL STUDIO\2017\COMMUNITY\VC\TOOLS\MSVC\14.15.26726\INCLUDE\UTILITY
C:\PROGRAM FILES (X86)\MICROSOFT VISUAL STUDIO\2017\COMMUNITY\VC\TOOLS\MSVC\14.15.26726\INCLUDE\XSTDDEF
C:\PROGRAM FILES (X86)\MICROSOFT VISUAL STUDIO\2017\COMMUNITY\VC\TOOLS\MSVC\14.15.26726\INCLUDE\CSTDDEF
C:\PROGRAM FILES (X86)\MICROSOFT VISUAL STUDIO\2017\COMMUNITY\VC\TOOLS\MSVC\14.15.26726\INCLUDE\XTR1COMMON
C:\PROGRAM FILES (X86)\MICROSOFT VISUAL STUDIO\2017\COMMUNITY\VC\TOOLS\MSVC\14.15.26726\INCLUDE\YVALS_CORE.H
C:\PROGRAM FILES (X86)\MICROSOFT VISUAL STUDIO\2017\COMMUNITY\VC\TOOLS\MSVC\14.15.26726\INCLUDE\XKEYCHECK.H
C:\PROGRAM FILES (X86)\MICROSOFT VISUAL STUDIO\2017\COMMUNITY\VC\TOOLS\MSVC\14.15.26726\INCLUDE\CSTDLIB
C:\PROGRAM FILES (X86)\WINDOWS KITS\10\INCLUDE\10.0.17134.0\UCRT\MATH.H
C:\PROGRAM FILES (X86)\WINDOWS KITS\10\INCLUDE\10.0.17134.0\UCRT\CORECRT_MATH.H
C:\PROGRAM FILES (X86)\MICROSOFT VISUAL STUDIO\2017\COMMUNITY\VC\TOOLS\MSVC\14.15.26726\INCLUDE\INITIALIZER_LIST
C:\PROGRAM FILES (X86)\MICROSOFT VISUAL STUDIO\2017\COMMUNITY\VC\TOOLS\MSVC\14.15.26726\INCLUDE\IOSFWD
C:\PROGRAM FILES (X86)\MICROSOFT VISUAL STUDIO\2017\COMMUNITY\VC\TOOLS\MSVC\14.15.26726\INCLUDE\CSTDIO
C:\PROGRAM FILES (X86)\MICROSOFT VISUAL STUDIO\2017\COMMUNITY\VC\TOOLS\MSVC\14.15.26726\INCLUDE\YVALS.H
C:\PROGRAM FILES (X86)\MICROSOFT VISUAL STUDIO\2017\COMMUNITY\VC\TOOLS\MSVC\14.15.26726\INCLUDE\USE_ANSI.H
C:\PROGRAM FILES (X86)\WINDOWS KITS\10\INCLUDE\10.0.17134.0\UCRT\STDIO.H
C:\PROGRAM FILES (X86)\WINDOWS KITS\10\INCLUDE\10.0.17134.0\UCRT\CORECRT_WSTDIO.H
C:\PROGRAM FILES (X86)\WINDOWS KITS\10\INCLUDE\10.0.17134.0\UCRT\CORECRT_STDIO_CONFIG.H
C:\PROGRAM FILES (X86)\MICROSOFT VISUAL STUDIO\2017\COMMUNITY\VC\TOOLS\MSVC\14.15.26726\INCLUDE\CSTRING
C:\PROGRAM FILES (X86)\MICROSOFT VISUAL STUDIO\2017\COMMUNITY\VC\TOOLS\MSVC\14.15.26726\INCLUDE\CWCHAR
C:\PROGRAM FILES (X86)\WINDOWS KITS\10\INCLUDE\10.0.17134.0\UCRT\WCHAR.H
C:\PROGRAM FILES (X86)\WINDOWS KITS\10\INCLUDE\10.0.17134.0\UCRT\CORECRT_WCONIO.H
C:\PROGRAM FILES (X86)\WINDOWS KITS\10\INCLUDE\10.0.17134.0\UCRT\CORECRT_WDIRECT.H
C:\PROGRAM FILES (X86)\WINDOWS KITS\10\INCLUDE\10.0.17134.0\UCRT\CORECRT_WIO.H
C:\PROGRAM FILES (X86)\WINDOWS KITS\10\INCLUDE\10.0.17134.0\UCRT\CORECRT_SHARE.H
C:\PROGRAM FILES (X86)\WINDOWS KITS\10\INCLUDE\10.0.17134.0\UCRT\CORECRT_WPROCESS.H
C:\PROGRAM FILES (X86)\WINDOWS KITS\10\INCLUDE\10.0.17134.0\UCRT\CORECRT_WTIME.H
C:\PROGRAM FILES (X86)\WINDOWS KITS\10\INCLUDE\10.0.17134.0\UCRT\SYS\STAT.H
C:\PROGRAM FILES (X86)\WINDOWS KITS\10\INCLUDE\10.0.17134.0\UCRT\SYS\TYPES.H
C:\PROGRAM FILES (X86)\MICROSOFT VISUAL STUDIO\2017\COMMUNITY\VC\TOOLS\MSVC\14.15.26726\INCLUDE\TYPE_TRAITS
C:\PROGRAM FILES (X86)\WINDOWS KITS\10\INCLUDE\10.0.17134.0\UM\DIRECTXCOLORS.H
C:\PROGRAM FILES (X86)\WINDOWS KITS\10\INCLUDE\10.0.17134.0\UM\DIRECTXMATH.H
C:\PROGRAM FILES (X86)\WINDOWS KITS\10\INCLUDE\10.0.17134.0\UCRT\FLOAT.H
C:\PROGRAM FILES (X86)\WINDOWS KITS\10\INCLUDE\10.0.17134.0\UCRT\ASSERT.H
C:\PROGRAM FILES (X86)\MICROSOFT VISUAL STUDIO\2017\COMMUNITY\VC\TOOLS\MSVC\14.15.26726\INCLUDE\STDINT.H
C:\PROGRAM FILES (X86)\WINDOWS KITS\10\INCLUDE\10.0.17134.0\UM\DIRECTXMATHCONVERT.INL
C:\PROGRAM FILES (X86)\WINDOWS KITS\10\INCLUDE\10.0.17134.0\UM\DIRECTXMATHVECTOR.INL
C:\PROGRAM FILES (X86)\WINDOWS KITS\10\INCLUDE\10.0.17134.0\UM\DIRECTXMATHMATRIX.INL
C:\PROGRAM FILES (X86)\WINDOWS KITS\10\INCLUDE\10.0.17134.0\UM\DIRECTXMATHMISC.INL
C:\PROGRAM FILES (X86)\MICROSOFT VISUAL STUDIO\2017\COMMUNITY\VC\TOOLS\MSVC\14.15.26726\INCLUDE\MEMORY
C:\PROGRAM FILES (X86)\MICROSOFT VISUAL STUDIO\2017\COMMUNITY\VC\TOOLS\MSVC\14.15.26726\INCLUDE\XMEMORY
C:\PROGRAM FILES (X86)\MICROSOFT VISUAL STUDIO\2017\COMMUNITY\VC\TOOLS\MSVC\14.15.26726\INCLUDE\XMEMORY0
C:\PROGRAM FILES (X86)\MICROSOFT VISUAL STUDIO\2017\COMMUNITY\VC\TOOLS\MSVC\14.15.26726\INCLUDE\CSTDINT
C:\PROGRAM FILES (X86)\MICROSOFT VISUAL STUDIO\2017\COMMUNITY\VC\TOOLS\MSVC\14.15.26726\INCLUDE\LIMITS
C:\PROGRAM FILES (X86)\MICROSOFT VISUAL STUDIO\2017\COMMUNITY\VC\TOOLS\MSVC\14.15.26726\INCLUDE\YMATH.H
C:\PROGRAM FILES (X86)\MICROSOFT VISUAL STUDIO\2017\COMMUNITY\VC\TOOLS\MSVC\14.15.26726\INCLUDE\CFLOAT
C:\PROGRAM FILES (X86)\MICROSOFT VISUAL STUDIO\2017\COMMUNITY\VC\TOOLS\MSVC\14.15.26726\INCLUDE\CLIMITS
C:\PROGRAM FILES (X86)\MICROSOFT VISUAL STUDIO\2017\COMMUNITY\VC\TOOLS\MSVC\14.15.26726\INCLUDE\CMATH
C:\PROGRAM FILES (X86)\MICROSOFT VISUAL STUDIO\2017\COMMUNITY\VC\TOOLS\MSVC\14.15.26726\INCLUDE\XTGMATH.H
C:\PROGRAM FILES (X86)\MICROSOFT VISUAL STUDIO\2017\COMMUNITY\VC\TOOLS\MSVC\14.15.26726\INCLUDE\NEW
C:\PROGRAM FILES (X86)\MICROSOFT VISUAL STUDIO\2017\COMMUNITY\VC\TOOLS\MSVC\14.15.26726\INCLUDE\EXCEPTION
C:\PROGRAM FILES (X86)\MICROSOFT VISUAL STUDIO\2017\COMMUNITY\VC\TOOLS\MSVC\14.15.26726\INCLUDE\VCRUNTIME_EXCEPTION.H
C:\PROGRAM FILES (X86)\MICROSOFT VISUAL STUDIO\2017\COMMUNITY\VC\TOOLS\MSVC\14.15.26726\INCLUDE\EH.H
C:\PROGRAM FILES (X86)\WINDOWS KITS\10\INCLUDE\10.0.17134.0\UCRT\CORECRT_TERMINATE.H
C:\PROGRAM FILES (X86)\MICROSOFT VISUAL STUDIO\2017\COMMUNITY\VC\TOOLS\MSVC\14.15.26726\INCLUDE\XUTILITY
C:\PROGRAM FILES (X86)\MICROSOFT VISUAL STUDIO\2017\COMMUNITY\VC\TOOLS\MSVC\14.15.26726\INCLUDE\XATOMIC0.H
C:\PROGRAM FILES (X86)\MICROSOFT VISUAL STUDIO\2017\COMMUNITY\VC\TOOLS\MSVC\14.15.26726\INCLUDE\TYPEINFO
C:\PROGRAM FILES (X86)\MICROSOFT VISUAL STUDIO\2017\COMMUNITY\VC\TOOLS\MSVC\14.15.26726\INCLUDE\VCRUNTIME_TYPEINFO.H
C:\PROGRAM FILES (X86)\MICROSOFT VISUAL STUDIO\2017\COMMUNITY\VC\TOOLS\MSVC\14.15.26726\INCLUDE\VECTOR
C:\PROGRAM FILES (X86)\MICROSOFT VISUAL STUDIO\2017\COMMUNITY\VC\TOOLS\MSVC\14.15.26726\INCLUDE\STDEXCEPT
C:\PROGRAM FILES (X86)\MICROSOFT VISUAL STUDIO\2017\COMMUNITY\VC\TOOLS\MSVC\14.15.26726\INCLUDE\XSTRING
C:\PROGRAM FILES (X86)\MICROSOFT VISUAL STUDIO\2017\COMMUNITY\VC\TOOLS\MSVC\14.15.26726\INCLUDE\AGILE.H
C:\PROGRAM FILES (X86)\MICROSOFT VISUAL STUDIO\2017\COMMUNITY\VC\TOOLS\MSVC\14.15.26726\INCLUDE\ALGORITHM
C:\PROGRAM FILES (X86)\MICROSOFT VISUAL STUDIO\2017\COMMUNITY\VC\TOOLS\MSVC\14.15.26726\INCLUDE\CONCRT.H
C:\PROGRAM FILES (X86)\MICROSOFT VISUAL STUDIO\2017\COMMUNITY\VC\TOOLS\MSVC\14.15.26726\INCLUDE\PPLINTERFACE.H
C:\PROGRAM FILES (X86)\MICROSOFT VISUAL STUDIO\2017\COMMUNITY\VC\TOOLS\MSVC\14.15.26726\INCLUDE\ATOMIC
C:\PROGRAM FILES (X86)\MICROSOFT VISUAL STUDIO\2017\COMMUNITY\VC\TOOLS\MSVC\14.15.26726\INCLUDE\XATOMIC.H
C:\PROGRAM FILES (X86)\MICROSOFT VISUAL STUDIO\2017\COMMUNITY\VC\TOOLS\MSVC\14.15.26726\INCLUDE\XXATOMIC
C:\PROGRAM FILES (X86)\WINDOWS KITS\10\INCLUDE\10.0.17134.0\UM\DXGIDEBUG.H
^C:\USERS\MORITZ\DOCUMENTS\UNTITELEDGAME\GAME\APP.CPP
C:\USERS\MORITZ\DOCUMENTS\UNTITELEDGAME\GAME\DEBUG\PCH.PCH
C:\PROGRAM FILES (X86)\MICROSOFT VISUAL STUDIO\2017\COMMUNITY\VC\TOOLS\MSVC\14.15.26726\BIN\HOSTX86\X86\MSPDBSRV.EXE
C:\WINDOWS\MICROSOFT.NET\FRAMEWORK\V1.1.4322\MSCORWKS.DLL
C:\WINDOWS\MICROSOFT.NET\FRAMEWORK\V2.0.50727\MSCORWKS.DLL
C:\WINDOWS\MICROSOFT.NET\FRAMEWORK\V4.0.30319\CLR.DLL
C:\PROGRAM FILES (X86)\MICROSOFT VISUAL STUDIO\2017\COMMUNITY\VC\TOOLS\MSVC\14.15.26726\BIN\HOSTX86\X86\CL.EXE.CONFIG
C:\PROGRAM FILES (X86)\MICROSOFT VISUAL STUDIO\2017\COMMUNITY\VC\TOOLS\MSVC\14.15.26726\LIB\X86\STORE\REFERENCES\PLATFORM.WINMD
C:\PROGRAM FILES (X86)\WINDOWS KITS\10\REFERENCES\10.0.17134.0\WINDOWS.FOUNDATION.FOUNDATIONCONTRACT\3.0.0.0\WINDOWS.FOUNDATION.FOUNDATIONCONTRACT.WINMD
C:\PROGRAM FILES (X86)\WINDOWS KITS\10\REFERENCES\10.0.17134.0\WINDOWS.FOUNDATION.UNIVERSALAPICONTRACT\6.0.0.0\WINDOWS.FOUNDATION.UNIVERSALAPICONTRACT.WINMD
C:\PROGRAM FILES (X86)\WINDOWS KITS\10\REFERENCES\10.0.17134.0\WINDOWS.AI.MACHINELEARNING.PREVIEW.MACHINELEARNINGPREVIEWCONTRACT\1.0.0.0\WINDOWS.AI.MACHINELEARNING.PREVIEW.MACHINELEARNINGPREVIEWCONTRACT.WINMD
C:\PROGRAM FILES (X86)\WINDOWS KITS\10\REFERENCES\10.0.17134.0\WINDOWS.APPLICATIONMODEL.CALLS.CALLSVOIPCONTRACT\3.0.0.0\WINDOWS.APPLICATIONMODEL.CALLS.CALLSVOIPCONTRACT.WINMD
C:\PROGRAM FILES (X86)\WINDOWS KITS\10\REFERENCES\10.0.17134.0\WINDOWS.APPLICATIONMODEL.SOCIALINFO.SOCIALINFOCONTRACT\2.0.0.0\WINDOWS.APPLICATIONMODEL.SOCIALINFO.SOCIALINFOCONTRACT.WINMD
C:\PROGRAM FILES (X86)\WINDOWS KITS\10\REFERENCES\10.0.17134.0\WINDOWS.APPLICATIONMODEL.STARTUPTASKCONTRACT\3.0.0.0\WINDOWS.APPLICATIONMODEL.STARTUPTASKCONTRACT.WINMD
C:\PROGRAM FILES (X86)\WINDOWS KITS\10\REFERENCES\10.0.17134.0\WINDOWS.DEVICES.CUSTOM.CUSTOMDEVICECONTRACT\1.0.0.0\WINDOWS.DEVICES.CUSTOM.CUSTOMDEVICECONTRACT.WINMD
C:\PROGRAM FILES (X86)\WINDOWS KITS\10\REFERENCES\10.0.17134.0\WINDOWS.DEVICES.DEVICESLOWLEVELCONTRACT\3.0.0.0\WINDOWS.DEVICES.DEVICESLOWLEVELCONTRACT.WINMD
C:\PROGRAM FILES (X86)\WINDOWS KITS\10\REFERENCES\10.0.17134.0\WINDOWS.DEVICES.PRINTERS.PRINTERSCONTRACT\1.0.0.0\WINDOWS.DEVICES.PRINTERS.PRINTERSCONTRACT.WINMD
C:\PROGRAM FILES (X86)\WINDOWS KITS\10\REFERENCES\10.0.17134.0\WINDOWS.DEVICES.SMARTCARDS.SMARTCARDBACKGROUNDTRIGGERCONTRACT\3.0.0.0\WINDOWS.DEVICES.SMARTCARDS.SMARTCARDBACKGROUNDTRIGGERCONTRACT.WINMD
C:\PROGRAM FILES (X86)\WINDOWS KITS\10\REFERENCES\10.0.17134.0\WINDOWS.DEVICES.SMARTCARDS.SMARTCARDEMULATORCONTRACT\5.0.0.0\WINDOWS.DEVICES.SMARTCARDS.SMARTCARDEMULATORCONTRACT.WINMD
C:\PROGRAM FILES (X86)\WINDOWS KITS\10\REFERENCES\10.0.17134.0\WINDOWS.GAMING.XBOXLIVE.STORAGEAPICONTRACT\1.0.0.0\WINDOWS.GAMING.XBOXLIVE.STORAGEAPICONTRACT.WINMD
C:\PROGRAM FILES (X86)\WINDOWS KITS\10\REFERENCES\10.0.17134.0\WINDOWS.GRAPHICS.PRINTING3D.PRINTING3DCONTRACT\4.0.0.0\WINDOWS.GRAPHICS.PRINTING3D.PRINTING3DCONTRACT.WINMD
C:\PROGRAM FILES (X86)\WINDOWS KITS\10\REFERENCES\10.0.17134.0\WINDOWS.NETWORKING.CONNECTIVITY.WWANCONTRACT\2.0.0.0\WINDOWS.NETWORKING.CONNECTIVITY.WWANCONTRACT.WINMD
C:\PROGRAM FILES (X86)\WINDOWS KITS\10\REFERENCES\10.0.17134.0\WINDOWS.SERVICES.STORE.STORECONTRACT\3.0.0.0\WINDOWS.SERVICES.STORE.STORECONTRACT.WINMD
C:\PROGRAM FILES (X86)\WINDOWS KITS\10\REFERENCES\10.0.17134.0\WINDOWS.SERVICES.TARGETEDCONTENT.TARGETEDCONTENTCONTRACT\1.0.0.0\WINDOWS.SERVICES.TARGETEDCONTENT.TARGETEDCONTENTCONTRACT.WINMD
C:\PROGRAM FILES (X86)\WINDOWS KITS\10\REFERENCES\10.0.17134.0\WINDOWS.SYSTEM.PROFILE.PROFILEHARDWARETOKENCONTRACT\1.0.0.0\WINDOWS.SYSTEM.PROFILE.PROFILEHARDWARETOKENCONTRACT.WINMD
C:\PROGRAM FILES (X86)\WINDOWS KITS\10\REFERENCES\10.0.17134.0\WINDOWS.SYSTEM.PROFILE.PROFILESHAREDMODECONTRACT\2.0.0.0\WINDOWS.SYSTEM.PROFILE.PROFILESHAREDMODECONTRACT.WINMD
C:\PROGRAM FILES (X86)\WINDOWS KITS\10\REFERENCES\10.0.17134.0\WINDOWS.UI.VIEWMANAGEMENT.VIEWMANAGEMENTVIEWSCALINGCONTRACT\1.0.0.0\WINDOWS.UI.VIEWMANAGEMENT.VIEWMANAGEMENTVIEWSCALINGCONTRACT.WINMD
C:\USERS\MORITZ\DOCUMENTS\UNTITELEDGAME\GAME\DEBUG\PCH.OBJ
C:\USERS\MORITZ\DOCUMENTS\UNTITELEDGAME\GAME\APP.H
C:\USERS\MORITZ\DOCUMENTS\UNTITELEDGAME\GAME\COMMON\DEVICERESOURCES.H
C:\USERS\MORITZ\DOCUMENTS\UNTITELEDGAME\GAME\GAMEMAIN.H
C:\USERS\MORITZ\DOCUMENTS\UNTITELEDGAME\GAME\COMMON\STEPTIMER.H
C:\USERS\MORITZ\DOCUMENTS\UNTITELEDGAME\GAME\CONTENT\SAMPLE3DSCENERENDERER.H
C:\USERS\MORITZ\DOCUMENTS\UNTITELEDGAME\GAME\CONTENT\SHADERSTRUCTURES.H
C:\PROGRAM FILES (X86)\MICROSOFT VISUAL STUDIO\2017\COMMUNITY\VC\TOOLS\MSVC\14.15.26726\INCLUDE\PPLTASKS.H
C:\PROGRAM FILES (X86)\MICROSOFT VISUAL STUDIO\2017\COMMUNITY\VC\TOOLS\MSVC\14.15.26726\INCLUDE\PPLWIN.H
C:\PROGRAM FILES (X86)\MICROSOFT VISUAL STUDIO\2017\COMMUNITY\VC\TOOLS\MSVC\14.15.26726\INCLUDE\CONDITION_VARIABLE
C:\PROGRAM FILES (X86)\MICROSOFT VISUAL STUDIO\2017\COMMUNITY\VC\TOOLS\MSVC\14.15.26726\INCLUDE\THR\XTHREAD
C:\PROGRAM FILES (X86)\MICROSOFT VISUAL STUDIO\2017\COMMUNITY\VC\TOOLS\MSVC\14.15.26726\INCLUDE\THR\XTHRCOMMON.H
C:\PROGRAM FILES (X86)\MICROSOFT VISUAL STUDIO\2017\COMMUNITY\VC\TOOLS\MSVC\14.15.26726\INCLUDE\THR\XTIME
C:\PROGRAM FILES (X86)\MICROSOFT VISUAL STUDIO\2017\COMMUNITY\VC\TOOLS\MSVC\14.15.26726\INCLUDE\THR\XTIMEC.H
C:\PROGRAM FILES (X86)\WINDOWS KITS\10\INCLUDE\10.0.17134.0\UCRT\TIME.H
C:\PROGRAM FILES (X86)\MICROSOFT VISUAL STUDIO\2017\COMMUNITY\VC\TOOLS\MSVC\14.15.26726\INCLUDE\THR\XTHREADS.H
C:\PROGRAM FILES (X86)\MICROSOFT VISUAL STUDIO\2017\COMMUNITY\VC\TOOLS\MSVC\14.15.26726\INCLUDE\TUPLE
C:\PROGRAM FILES (X86)\MICROSOFT VISUAL STUDIO\2017\COMMUNITY\VC\TOOLS\MSVC\14.15.26726\INCLUDE\MUTEX
C:\PROGRAM FILES (X86)\MICROSOFT VISUAL STUDIO\2017\COMMUNITY\VC\TOOLS\MSVC\14.15.26726\INCLUDE\CHRONO
C:\PROGRAM FILES (X86)\MICROSOFT VISUAL STUDIO\2017\COMMUNITY\VC\TOOLS\MSVC\14.15.26726\INCLUDE\RATIO
C:\PROGRAM FILES (X86)\MICROSOFT VISUAL STUDIO\2017\COMMUNITY\VC\TOOLS\MSVC\14.15.26726\INCLUDE\FUNCTIONAL
C:\PROGRAM FILES (X86)\MICROSOFT VISUAL STUDIO\2017\COMMUNITY\VC\TOOLS\MSVC\14.15.26726\INCLUDE\SYSTEM_ERROR
C:\PROGRAM FILES (X86)\MICROSOFT VISUAL STUDIO\2017\COMMUNITY\VC\TOOLS\MSVC\14.15.26726\INCLUDE\CERRNO
C:\PROGRAM FILES (X86)\MICROSOFT VISUAL STUDIO\2017\COMMUNITY\VC\TOOLS\MSVC\14.15.26726\INCLUDE\XCALL_ONCE.H
C:\PROGRAM FILES (X86)\MICROSOFT VISUAL STUDIO\2017\COMMUNITY\VC\TOOLS\MSVC\14.15.26726\INCLUDE\XERRC.H
C:\PROGRAM FILES (X86)\MICROSOFT VISUAL STUDIO\2017\COMMUNITY\VC\TOOLS\MSVC\14.15.26726\INCLUDE\THREAD
C:\PROGRAM FILES (X86)\MICROSOFT VISUAL STUDIO\2017\COMMUNITY\VC\TOOLS\MSVC\14.15.26726\INCLUDE\PPLTASKSCHEDULER.H
C:\PROGRAM FILES (X86)\MICROSOFT VISUAL STUDIO\2017\COMMUNITY\VC\TOOLS\MSVC\14.15.26726\INCLUDE\CRTDEFS.H
C:\PROGRAM FILES (X86)\MICROSOFT VISUAL STUDIO\2017\COMMUNITY\VC\TOOLS\MSVC\14.15.26726\INCLUDE\PPLCANCELLATION_TOKEN.H
^C:\USERS\MORITZ\DOCUMENTS\UNTITELEDGAME\GAME\GAMEMAIN.CPP
C:\USERS\MORITZ\DOCUMENTS\UNTITELEDGAME\GAME\DEBUG\PCH.PCH
C:\WINDOWS\MICROSOFT.NET\FRAMEWORK\V1.1.4322\MSCORWKS.DLL
C:\WINDOWS\MICROSOFT.NET\FRAMEWORK\V2.0.50727\MSCORWKS.DLL
C:\WINDOWS\MICROSOFT.NET\FRAMEWORK\V4.0.30319\CLR.DLL
C:\PROGRAM FILES (X86)\MICROSOFT VISUAL STUDIO\2017\COMMUNITY\VC\TOOLS\MSVC\14.15.26726\BIN\HOSTX86\X86\CL.EXE.CONFIG
C:\PROGRAM FILES (X86)\MICROSOFT VISUAL STUDIO\2017\COMMUNITY\VC\TOOLS\MSVC\14.15.26726\LIB\X86\STORE\REFERENCES\PLATFORM.WINMD
C:\PROGRAM FILES (X86)\WINDOWS KITS\10\REFERENCES\10.0.17134.0\WINDOWS.FOUNDATION.FOUNDATIONCONTRACT\3.0.0.0\WINDOWS.FOUNDATION.FOUNDATIONCONTRACT.WINMD
C:\PROGRAM FILES (X86)\WINDOWS KITS\10\REFERENCES\10.0.17134.0\WINDOWS.FOUNDATION.UNIVERSALAPICONTRACT\6.0.0.0\WINDOWS.FOUNDATION.UNIVERSALAPICONTRACT.WINMD
C:\PROGRAM FILES (X86)\WINDOWS KITS\10\REFERENCES\10.0.17134.0\WINDOWS.AI.MACHINELEARNING.PREVIEW.MACHINELEARNINGPREVIEWCONTRACT\1.0.0.0\WINDOWS.AI.MACHINELEARNING.PREVIEW.MACHINELEARNINGPREVIEWCONTRACT.WINMD
C:\PROGRAM FILES (X86)\WINDOWS KITS\10\REFERENCES\10.0.17134.0\WINDOWS.APPLICATIONMODEL.CALLS.CALLSVOIPCONTRACT\3.0.0.0\WINDOWS.APPLICATIONMODEL.CALLS.CALLSVOIPCONTRACT.WINMD
C:\PROGRAM FILES (X86)\WINDOWS KITS\10\REFERENCES\10.0.17134.0\WINDOWS.APPLICATIONMODEL.SOCIALINFO.SOCIALINFOCONTRACT\2.0.0.0\WINDOWS.APPLICATIONMODEL.SOCIALINFO.SOCIALINFOCONTRACT.WINMD
C:\PROGRAM FILES (X86)\WINDOWS KITS\10\REFERENCES\10.0.17134.0\WINDOWS.APPLICATIONMODEL.STARTUPTASKCONTRACT\3.0.0.0\WINDOWS.APPLICATIONMODEL.STARTUPTASKCONTRACT.WINMD
C:\PROGRAM FILES (X86)\WINDOWS KITS\10\REFERENCES\10.0.17134.0\WINDOWS.DEVICES.CUSTOM.CUSTOMDEVICECONTRACT\1.0.0.0\WINDOWS.DEVICES.CUSTOM.CUSTOMDEVICECONTRACT.WINMD
C:\PROGRAM FILES (X86)\WINDOWS KITS\10\REFERENCES\10.0.17134.0\WINDOWS.DEVICES.DEVICESLOWLEVELCONTRACT\3.0.0.0\WINDOWS.DEVICES.DEVICESLOWLEVELCONTRACT.WINMD
C:\PROGRAM FILES (X86)\WINDOWS KITS\10\REFERENCES\10.0.17134.0\WINDOWS.DEVICES.PRINTERS.PRINTERSCONTRACT\1.0.0.0\WINDOWS.DEVICES.PRINTERS.PRINTERSCONTRACT.WINMD
C:\PROGRAM FILES (X86)\WINDOWS KITS\10\REFERENCES\10.0.17134.0\WINDOWS.DEVICES.SMARTCARDS.SMARTCARDBACKGROUNDTRIGGERCONTRACT\3.0.0.0\WINDOWS.DEVICES.SMARTCARDS.SMARTCARDBACKGROUNDTRIGGERCONTRACT.WINMD
C:\PROGRAM FILES (X86)\WINDOWS KITS\10\REFERENCES\10.0.17134.0\WINDOWS.DEVICES.SMARTCARDS.SMARTCARDEMULATORCONTRACT\5.0.0.0\WINDOWS.DEVICES.SMARTCARDS.SMARTCARDEMULATORCONTRACT.WINMD
C:\PROGRAM FILES (X86)\WINDOWS KITS\10\REFERENCES\10.0.17134.0\WINDOWS.GAMING.XBOXLIVE.STORAGEAPICONTRACT\1.0.0.0\WINDOWS.GAMING.XBOXLIVE.STORAGEAPICONTRACT.WINMD
C:\PROGRAM FILES (X86)\WINDOWS KITS\10\REFERENCES\10.0.17134.0\WINDOWS.GRAPHICS.PRINTING3D.PRINTING3DCONTRACT\4.0.0.0\WINDOWS.GRAPHICS.PRINTING3D.PRINTING3DCONTRACT.WINMD
C:\PROGRAM FILES (X86)\WINDOWS KITS\10\REFERENCES\10.0.17134.0\WINDOWS.NETWORKING.CONNECTIVITY.WWANCONTRACT\2.0.0.0\WINDOWS.NETWORKING.CONNECTIVITY.WWANCONTRACT.WINMD
C:\PROGRAM FILES (X86)\WINDOWS KITS\10\REFERENCES\10.0.17134.0\WINDOWS.SERVICES.STORE.STORECONTRACT\3.0.0.0\WINDOWS.SERVICES.STORE.STORECONTRACT.WINMD
C:\PROGRAM FILES (X86)\WINDOWS KITS\10\REFERENCES\10.0.17134.0\WINDOWS.SERVICES.TARGETEDCONTENT.TARGETEDCONTENTCONTRACT\1.0.0.0\WINDOWS.SERVICES.TARGETEDCONTENT.TARGETEDCONTENTCONTRACT.WINMD
C:\PROGRAM FILES (X86)\WINDOWS KITS\10\REFERENCES\10.0.17134.0\WINDOWS.SYSTEM.PROFILE.PROFILEHARDWARETOKENCONTRACT\1.0.0.0\WINDOWS.SYSTEM.PROFILE.PROFILEHARDWARETOKENCONTRACT.WINMD
C:\PROGRAM FILES (X86)\WINDOWS KITS\10\REFERENCES\10.0.17134.0\WINDOWS.SYSTEM.PROFILE.PROFILESHAREDMODECONTRACT\2.0.0.0\WINDOWS.SYSTEM.PROFILE.PROFILESHAREDMODECONTRACT.WINMD
C:\PROGRAM FILES (X86)\WINDOWS KITS\10\REFERENCES\10.0.17134.0\WINDOWS.UI.VIEWMANAGEMENT.VIEWMANAGEMENTVIEWSCALINGCONTRACT\1.0.0.0\WINDOWS.UI.VIEWMANAGEMENT.VIEWMANAGEMENTVIEWSCALINGCONTRACT.WINMD
C:\USERS\MORITZ\DOCUMENTS\UNTITELEDGAME\GAME\DEBUG\PCH.OBJ
C:\USERS\MORITZ\DOCUMENTS\UNTITELEDGAME\GAME\GAMEMAIN.H
C:\USERS\MORITZ\DOCUMENTS\UNTITELEDGAME\GAME\COMMON\STEPTIMER.H
C:\USERS\MORITZ\DOCUMENTS\UNTITELEDGAME\GAME\COMMON\DEVICERESOURCES.H
C:\USERS\MORITZ\DOCUMENTS\UNTITELEDGAME\GAME\CONTENT\SAMPLE3DSCENERENDERER.H
C:\USERS\MORITZ\DOCUMENTS\UNTITELEDGAME\GAME\CONTENT\SHADERSTRUCTURES.H
C:\USERS\MORITZ\DOCUMENTS\UNTITELEDGAME\GAME\COMMON\DIRECTXHELPER.H
C:\PROGRAM FILES (X86)\MICROSOFT VISUAL STUDIO\2017\COMMUNITY\VC\TOOLS\MSVC\14.15.26726\INCLUDE\PPLTASKS.H
C:\PROGRAM FILES (X86)\MICROSOFT VISUAL STUDIO\2017\COMMUNITY\VC\TOOLS\MSVC\14.15.26726\INCLUDE\PPLWIN.H
C:\PROGRAM FILES (X86)\MICROSOFT VISUAL STUDIO\2017\COMMUNITY\VC\TOOLS\MSVC\14.15.26726\INCLUDE\CONDITION_VARIABLE
C:\PROGRAM FILES (X86)\MICROSOFT VISUAL STUDIO\2017\COMMUNITY\VC\TOOLS\MSVC\14.15.26726\INCLUDE\THR\XTHREAD
C:\PROGRAM FILES (X86)\MICROSOFT VISUAL STUDIO\2017\COMMUNITY\VC\TOOLS\MSVC\14.15.26726\INCLUDE\THR\XTHRCOMMON.H
C:\PROGRAM FILES (X86)\MICROSOFT VISUAL STUDIO\2017\COMMUNITY\VC\TOOLS\MSVC\14.15.26726\INCLUDE\THR\XTIME
C:\PROGRAM FILES (X86)\MICROSOFT VISUAL STUDIO\2017\COMMUNITY\VC\TOOLS\MSVC\14.15.26726\INCLUDE\THR\XTIMEC.H
C:\PROGRAM FILES (X86)\WINDOWS KITS\10\INCLUDE\10.0.17134.0\UCRT\TIME.H
C:\PROGRAM FILES (X86)\MICROSOFT VISUAL STUDIO\2017\COMMUNITY\VC\TOOLS\MSVC\14.15.26726\INCLUDE\THR\XTHREADS.H
C:\PROGRAM FILES (X86)\MICROSOFT VISUAL STUDIO\2017\COMMUNITY\VC\TOOLS\MSVC\14.15.26726\INCLUDE\TUPLE
C:\PROGRAM FILES (X86)\MICROSOFT VISUAL STUDIO\2017\COMMUNITY\VC\TOOLS\MSVC\14.15.26726\INCLUDE\MUTEX
C:\PROGRAM FILES (X86)\MICROSOFT VISUAL STUDIO\2017\COMMUNITY\VC\TOOLS\MSVC\14.15.26726\INCLUDE\CHRONO
C:\PROGRAM FILES (X86)\MICROSOFT VISUAL STUDIO\2017\COMMUNITY\VC\TOOLS\MSVC\14.15.26726\INCLUDE\RATIO
C:\PROGRAM FILES (X86)\MICROSOFT VISUAL STUDIO\2017\COMMUNITY\VC\TOOLS\MSVC\14.15.26726\INCLUDE\FUNCTIONAL
C:\PROGRAM FILES (X86)\MICROSOFT VISUAL STUDIO\2017\COMMUNITY\VC\TOOLS\MSVC\14.15.26726\INCLUDE\SYSTEM_ERROR
C:\PROGRAM FILES (X86)\MICROSOFT VISUAL STUDIO\2017\COMMUNITY\VC\TOOLS\MSVC\14.15.26726\INCLUDE\CERRNO
C:\PROGRAM FILES (X86)\MICROSOFT VISUAL STUDIO\2017\COMMUNITY\VC\TOOLS\MSVC\14.15.26726\INCLUDE\XCALL_ONCE.H
C:\PROGRAM FILES (X86)\MICROSOFT VISUAL STUDIO\2017\COMMUNITY\VC\TOOLS\MSVC\14.15.26726\INCLUDE\XERRC.H
C:\PROGRAM FILES (X86)\MICROSOFT VISUAL STUDIO\2017\COMMUNITY\VC\TOOLS\MSVC\14.15.26726\INCLUDE\THREAD
C:\PROGRAM FILES (X86)\MICROSOFT VISUAL STUDIO\2017\COMMUNITY\VC\TOOLS\MSVC\14.15.26726\INCLUDE\PPLTASKSCHEDULER.H
C:\PROGRAM FILES (X86)\MICROSOFT VISUAL STUDIO\2017\COMMUNITY\VC\TOOLS\MSVC\14.15.26726\INCLUDE\CRTDEFS.H
C:\PROGRAM FILES (X86)\MICROSOFT VISUAL STUDIO\2017\COMMUNITY\VC\TOOLS\MSVC\14.15.26726\INCLUDE\PPLCANCELLATION_TOKEN.H
^C:\USERS\MORITZ\DOCUMENTS\UNTITELEDGAME\GAME\CONTENT\SAMPLE3DSCENERENDERER.CPP
C:\USERS\MORITZ\DOCUMENTS\UNTITELEDGAME\GAME\DEBUG\PCH.PCH
C:\WINDOWS\MICROSOFT.NET\FRAMEWORK\V1.1.4322\MSCORWKS.DLL
C:\WINDOWS\MICROSOFT.NET\FRAMEWORK\V2.0.50727\MSCORWKS.DLL
C:\WINDOWS\MICROSOFT.NET\FRAMEWORK\V4.0.30319\CLR.DLL
C:\PROGRAM FILES (X86)\MICROSOFT VISUAL STUDIO\2017\COMMUNITY\VC\TOOLS\MSVC\14.15.26726\BIN\HOSTX86\X86\CL.EXE.CONFIG
C:\PROGRAM FILES (X86)\MICROSOFT VISUAL STUDIO\2017\COMMUNITY\VC\TOOLS\MSVC\14.15.26726\LIB\X86\STORE\REFERENCES\PLATFORM.WINMD
C:\PROGRAM FILES (X86)\WINDOWS KITS\10\REFERENCES\10.0.17134.0\WINDOWS.FOUNDATION.FOUNDATIONCONTRACT\3.0.0.0\WINDOWS.FOUNDATION.FOUNDATIONCONTRACT.WINMD
C:\PROGRAM FILES (X86)\WINDOWS KITS\10\REFERENCES\10.0.17134.0\WINDOWS.FOUNDATION.UNIVERSALAPICONTRACT\6.0.0.0\WINDOWS.FOUNDATION.UNIVERSALAPICONTRACT.WINMD
C:\PROGRAM FILES (X86)\WINDOWS KITS\10\REFERENCES\10.0.17134.0\WINDOWS.AI.MACHINELEARNING.PREVIEW.MACHINELEARNINGPREVIEWCONTRACT\1.0.0.0\WINDOWS.AI.MACHINELEARNING.PREVIEW.MACHINELEARNINGPREVIEWCONTRACT.WINMD
C:\PROGRAM FILES (X86)\WINDOWS KITS\10\REFERENCES\10.0.17134.0\WINDOWS.APPLICATIONMODEL.CALLS.CALLSVOIPCONTRACT\3.0.0.0\WINDOWS.APPLICATIONMODEL.CALLS.CALLSVOIPCONTRACT.WINMD
C:\PROGRAM FILES (X86)\WINDOWS KITS\10\REFERENCES\10.0.17134.0\WINDOWS.APPLICATIONMODEL.SOCIALINFO.SOCIALINFOCONTRACT\2.0.0.0\WINDOWS.APPLICATIONMODEL.SOCIALINFO.SOCIALINFOCONTRACT.WINMD
C:\PROGRAM FILES (X86)\WINDOWS KITS\10\REFERENCES\10.0.17134.0\WINDOWS.APPLICATIONMODEL.STARTUPTASKCONTRACT\3.0.0.0\WINDOWS.APPLICATIONMODEL.STARTUPTASKCONTRACT.WINMD
C:\PROGRAM FILES (X86)\WINDOWS KITS\10\REFERENCES\10.0.17134.0\WINDOWS.DEVICES.CUSTOM.CUSTOMDEVICECONTRACT\1.0.0.0\WINDOWS.DEVICES.CUSTOM.CUSTOMDEVICECONTRACT.WINMD
C:\PROGRAM FILES (X86)\WINDOWS KITS\10\REFERENCES\10.0.17134.0\WINDOWS.DEVICES.DEVICESLOWLEVELCONTRACT\3.0.0.0\WINDOWS.DEVICES.DEVICESLOWLEVELCONTRACT.WINMD
C:\PROGRAM FILES (X86)\WINDOWS KITS\10\REFERENCES\10.0.17134.0\WINDOWS.DEVICES.PRINTERS.PRINTERSCONTRACT\1.0.0.0\WINDOWS.DEVICES.PRINTERS.PRINTERSCONTRACT.WINMD
C:\PROGRAM FILES (X86)\WINDOWS KITS\10\REFERENCES\10.0.17134.0\WINDOWS.DEVICES.SMARTCARDS.SMARTCARDBACKGROUNDTRIGGERCONTRACT\3.0.0.0\WINDOWS.DEVICES.SMARTCARDS.SMARTCARDBACKGROUNDTRIGGERCONTRACT.WINMD
C:\PROGRAM FILES (X86)\WINDOWS KITS\10\REFERENCES\10.0.17134.0\WINDOWS.DEVICES.SMARTCARDS.SMARTCARDEMULATORCONTRACT\5.0.0.0\WINDOWS.DEVICES.SMARTCARDS.SMARTCARDEMULATORCONTRACT.WINMD
C:\PROGRAM FILES (X86)\WINDOWS KITS\10\REFERENCES\10.0.17134.0\WINDOWS.GAMING.XBOXLIVE.STORAGEAPICONTRACT\1.0.0.0\WINDOWS.GAMING.XBOXLIVE.STORAGEAPICONTRACT.WINMD
C:\PROGRAM FILES (X86)\WINDOWS KITS\10\REFERENCES\10.0.17134.0\WINDOWS.GRAPHICS.PRINTING3D.PRINTING3DCONTRACT\4.0.0.0\WINDOWS.GRAPHICS.PRINTING3D.PRINTING3DCONTRACT.WINMD
C:\PROGRAM FILES (X86)\WINDOWS KITS\10\REFERENCES\10.0.17134.0\WINDOWS.NETWORKING.CONNECTIVITY.WWANCONTRACT\2.0.0.0\WINDOWS.NETWORKING.CONNECTIVITY.WWANCONTRACT.WINMD
C:\PROGRAM FILES (X86)\WINDOWS KITS\10\REFERENCES\10.0.17134.0\WINDOWS.SERVICES.STORE.STORECONTRACT\3.0.0.0\WINDOWS.SERVICES.STORE.STORECONTRACT.WINMD
C:\PROGRAM FILES (X86)\WINDOWS KITS\10\REFERENCES\10.0.17134.0\WINDOWS.SERVICES.TARGETEDCONTENT.TARGETEDCONTENTCONTRACT\1.0.0.0\WINDOWS.SERVICES.TARGETEDCONTENT.TARGETEDCONTENTCONTRACT.WINMD
C:\PROGRAM FILES (X86)\WINDOWS KITS\10\REFERENCES\10.0.17134.0\WINDOWS.SYSTEM.PROFILE.PROFILEHARDWARETOKENCONTRACT\1.0.0.0\WINDOWS.SYSTEM.PROFILE.PROFILEHARDWARETOKENCONTRACT.WINMD
C:\PROGRAM FILES (X86)\WINDOWS KITS\10\REFERENCES\10.0.17134.0\WINDOWS.SYSTEM.PROFILE.PROFILESHAREDMODECONTRACT\2.0.0.0\WINDOWS.SYSTEM.PROFILE.PROFILESHAREDMODECONTRACT.WINMD
C:\PROGRAM FILES (X86)\WINDOWS KITS\10\REFERENCES\10.0.17134.0\WINDOWS.UI.VIEWMANAGEMENT.VIEWMANAGEMENTVIEWSCALINGCONTRACT\1.0.0.0\WINDOWS.UI.VIEWMANAGEMENT.VIEWMANAGEMENTVIEWSCALINGCONTRACT.WINMD
C:\USERS\MORITZ\DOCUMENTS\UNTITELEDGAME\GAME\DEBUG\PCH.OBJ
C:\USERS\MORITZ\DOCUMENTS\UNTITELEDGAME\GAME\CONTENT\SAMPLE3DSCENERENDERER.H
C:\USERS\MORITZ\DOCUMENTS\UNTITELEDGAME\GAME\COMMON\DEVICERESOURCES.H
C:\USERS\MORITZ\DOCUMENTS\UNTITELEDGAME\GAME\CONTENT\SHADERSTRUCTURES.H
C:\USERS\MORITZ\DOCUMENTS\UNTITELEDGAME\GAME\COMMON\STEPTIMER.H
C:\USERS\MORITZ\DOCUMENTS\UNTITELEDGAME\GAME\COMMON\DIRECTXHELPER.H
C:\PROGRAM FILES (X86)\MICROSOFT VISUAL STUDIO\2017\COMMUNITY\VC\TOOLS\MSVC\14.15.26726\INCLUDE\PPLTASKS.H
C:\PROGRAM FILES (X86)\MICROSOFT VISUAL STUDIO\2017\COMMUNITY\VC\TOOLS\MSVC\14.15.26726\INCLUDE\PPLWIN.H
C:\PROGRAM FILES (X86)\MICROSOFT VISUAL STUDIO\2017\COMMUNITY\VC\TOOLS\MSVC\14.15.26726\INCLUDE\CONDITION_VARIABLE
C:\PROGRAM FILES (X86)\MICROSOFT VISUAL STUDIO\2017\COMMUNITY\VC\TOOLS\MSVC\14.15.26726\INCLUDE\THR\XTHREAD
C:\PROGRAM FILES (X86)\MICROSOFT VISUAL STUDIO\2017\COMMUNITY\VC\TOOLS\MSVC\14.15.26726\INCLUDE\THR\XTHRCOMMON.H
C:\PROGRAM FILES (X86)\MICROSOFT VISUAL STUDIO\2017\COMMUNITY\VC\TOOLS\MSVC\14.15.26726\INCLUDE\THR\XTIME
C:\PROGRAM FILES (X86)\MICROSOFT VISUAL STUDIO\2017\COMMUNITY\VC\TOOLS\MSVC\14.15.26726\INCLUDE\THR\XTIMEC.H
C:\PROGRAM FILES (X86)\WINDOWS KITS\10\INCLUDE\10.0.17134.0\UCRT\TIME.H
C:\PROGRAM FILES (X86)\MICROSOFT VISUAL STUDIO\2017\COMMUNITY\VC\TOOLS\MSVC\14.15.26726\INCLUDE\THR\XTHREADS.H
C:\PROGRAM FILES (X86)\MICROSOFT VISUAL STUDIO\2017\COMMUNITY\VC\TOOLS\MSVC\14.15.26726\INCLUDE\TUPLE
C:\PROGRAM FILES (X86)\MICROSOFT VISUAL STUDIO\2017\COMMUNITY\VC\TOOLS\MSVC\14.15.26726\INCLUDE\MUTEX
C:\PROGRAM FILES (X86)\MICROSOFT VISUAL STUDIO\2017\COMMUNITY\VC\TOOLS\MSVC\14.15.26726\INCLUDE\CHRONO
C:\PROGRAM FILES (X86)\MICROSOFT VISUAL STUDIO\2017\COMMUNITY\VC\TOOLS\MSVC\14.15.26726\INCLUDE\RATIO
C:\PROGRAM FILES (X86)\MICROSOFT VISUAL STUDIO\2017\COMMUNITY\VC\TOOLS\MSVC\14.15.26726\INCLUDE\FUNCTIONAL
C:\PROGRAM FILES (X86)\MICROSOFT VISUAL STUDIO\2017\COMMUNITY\VC\TOOLS\MSVC\14.15.26726\INCLUDE\SYSTEM_ERROR
C:\PROGRAM FILES (X86)\MICROSOFT VISUAL STUDIO\2017\COMMUNITY\VC\TOOLS\MSVC\14.15.26726\INCLUDE\CERRNO
C:\PROGRAM FILES (X86)\MICROSOFT VISUAL STUDIO\2017\COMMUNITY\VC\TOOLS\MSVC\14.15.26726\INCLUDE\XCALL_ONCE.H
C:\PROGRAM FILES (X86)\MICROSOFT VISUAL STUDIO\2017\COMMUNITY\VC\TOOLS\MSVC\14.15.26726\INCLUDE\XERRC.H
C:\PROGRAM FILES (X86)\MICROSOFT VISUAL STUDIO\2017\COMMUNITY\VC\TOOLS\MSVC\14.15.26726\INCLUDE\THREAD
C:\PROGRAM FILES (X86)\MICROSOFT VISUAL STUDIO\2017\COMMUNITY\VC\TOOLS\MSVC\14.15.26726\INCLUDE\PPLTASKSCHEDULER.H
C:\PROGRAM FILES (X86)\MICROSOFT VISUAL STUDIO\2017\COMMUNITY\VC\TOOLS\MSVC\14.15.26726\INCLUDE\CRTDEFS.H
C:\PROGRAM FILES (X86)\MICROSOFT VISUAL STUDIO\2017\COMMUNITY\VC\TOOLS\MSVC\14.15.26726\INCLUDE\PPLCANCELLATION_TOKEN.H
^C:\USERS\MORITZ\DOCUMENTS\UNTITELEDGAME\GAME\COMMON\DEVICERESOURCES.CPP
C:\USERS\MORITZ\DOCUMENTS\UNTITELEDGAME\GAME\DEBUG\PCH.PCH
C:\WINDOWS\MICROSOFT.NET\FRAMEWORK\V1.1.4322\MSCORWKS.DLL
C:\WINDOWS\MICROSOFT.NET\FRAMEWORK\V2.0.50727\MSCORWKS.DLL
C:\WINDOWS\MICROSOFT.NET\FRAMEWORK\V4.0.30319\CLR.DLL
C:\PROGRAM FILES (X86)\MICROSOFT VISUAL STUDIO\2017\COMMUNITY\VC\TOOLS\MSVC\14.15.26726\BIN\HOSTX86\X86\CL.EXE.CONFIG
C:\PROGRAM FILES (X86)\MICROSOFT VISUAL STUDIO\2017\COMMUNITY\VC\TOOLS\MSVC\14.15.26726\LIB\X86\STORE\REFERENCES\PLATFORM.WINMD
C:\PROGRAM FILES (X86)\WINDOWS KITS\10\REFERENCES\10.0.17134.0\WINDOWS.FOUNDATION.FOUNDATIONCONTRACT\3.0.0.0\WINDOWS.FOUNDATION.FOUNDATIONCONTRACT.WINMD
C:\PROGRAM FILES (X86)\WINDOWS KITS\10\REFERENCES\10.0.17134.0\WINDOWS.FOUNDATION.UNIVERSALAPICONTRACT\6.0.0.0\WINDOWS.FOUNDATION.UNIVERSALAPICONTRACT.WINMD
C:\PROGRAM FILES (X86)\WINDOWS KITS\10\REFERENCES\10.0.17134.0\WINDOWS.AI.MACHINELEARNING.PREVIEW.MACHINELEARNINGPREVIEWCONTRACT\1.0.0.0\WINDOWS.AI.MACHINELEARNING.PREVIEW.MACHINELEARNINGPREVIEWCONTRACT.WINMD
C:\PROGRAM FILES (X86)\WINDOWS KITS\10\REFERENCES\10.0.17134.0\WINDOWS.APPLICATIONMODEL.CALLS.CALLSVOIPCONTRACT\3.0.0.0\WINDOWS.APPLICATIONMODEL.CALLS.CALLSVOIPCONTRACT.WINMD
C:\PROGRAM FILES (X86)\WINDOWS KITS\10\REFERENCES\10.0.17134.0\WINDOWS.APPLICATIONMODEL.SOCIALINFO.SOCIALINFOCONTRACT\2.0.0.0\WINDOWS.APPLICATIONMODEL.SOCIALINFO.SOCIALINFOCONTRACT.WINMD
C:\PROGRAM FILES (X86)\WINDOWS KITS\10\REFERENCES\10.0.17134.0\WINDOWS.APPLICATIONMODEL.STARTUPTASKCONTRACT\3.0.0.0\WINDOWS.APPLICATIONMODEL.STARTUPTASKCONTRACT.WINMD
C:\PROGRAM FILES (X86)\WINDOWS KITS\10\REFERENCES\10.0.17134.0\WINDOWS.DEVICES.CUSTOM.CUSTOMDEVICECONTRACT\1.0.0.0\WINDOWS.DEVICES.CUSTOM.CUSTOMDEVICECONTRACT.WINMD
C:\PROGRAM FILES (X86)\WINDOWS KITS\10\REFERENCES\10.0.17134.0\WINDOWS.DEVICES.DEVICESLOWLEVELCONTRACT\3.0.0.0\WINDOWS.DEVICES.DEVICESLOWLEVELCONTRACT.WINMD
C:\PROGRAM FILES (X86)\WINDOWS KITS\10\REFERENCES\10.0.17134.0\WINDOWS.DEVICES.PRINTERS.PRINTERSCONTRACT\1.0.0.0\WINDOWS.DEVICES.PRINTERS.PRINTERSCONTRACT.WINMD
C:\PROGRAM FILES (X86)\WINDOWS KITS\10\REFERENCES\10.0.17134.0\WINDOWS.DEVICES.SMARTCARDS.SMARTCARDBACKGROUNDTRIGGERCONTRACT\3.0.0.0\WINDOWS.DEVICES.SMARTCARDS.SMARTCARDBACKGROUNDTRIGGERCONTRACT.WINMD
C:\PROGRAM FILES (X86)\WINDOWS KITS\10\REFERENCES\10.0.17134.0\WINDOWS.DEVICES.SMARTCARDS.SMARTCARDEMULATORCONTRACT\5.0.0.0\WINDOWS.DEVICES.SMARTCARDS.SMARTCARDEMULATORCONTRACT.WINMD
C:\PROGRAM FILES (X86)\WINDOWS KITS\10\REFERENCES\10.0.17134.0\WINDOWS.GAMING.XBOXLIVE.STORAGEAPICONTRACT\1.0.0.0\WINDOWS.GAMING.XBOXLIVE.STORAGEAPICONTRACT.WINMD
C:\PROGRAM FILES (X86)\WINDOWS KITS\10\REFERENCES\10.0.17134.0\WINDOWS.GRAPHICS.PRINTING3D.PRINTING3DCONTRACT\4.0.0.0\WINDOWS.GRAPHICS.PRINTING3D.PRINTING3DCONTRACT.WINMD
C:\PROGRAM FILES (X86)\WINDOWS KITS\10\REFERENCES\10.0.17134.0\WINDOWS.NETWORKING.CONNECTIVITY.WWANCONTRACT\2.0.0.0\WINDOWS.NETWORKING.CONNECTIVITY.WWANCONTRACT.WINMD
C:\PROGRAM FILES (X86)\WINDOWS KITS\10\REFERENCES\10.0.17134.0\WINDOWS.SERVICES.STORE.STORECONTRACT\3.0.0.0\WINDOWS.SERVICES.STORE.STORECONTRACT.WINMD
C:\PROGRAM FILES (X86)\WINDOWS KITS\10\REFERENCES\10.0.17134.0\WINDOWS.SERVICES.TARGETEDCONTENT.TARGETEDCONTENTCONTRACT\1.0.0.0\WINDOWS.SERVICES.TARGETEDCONTENT.TARGETEDCONTENTCONTRACT.WINMD
C:\PROGRAM FILES (X86)\WINDOWS KITS\10\REFERENCES\10.0.17134.0\WINDOWS.SYSTEM.PROFILE.PROFILEHARDWARETOKENCONTRACT\1.0.0.0\WINDOWS.SYSTEM.PROFILE.PROFILEHARDWARETOKENCONTRACT.WINMD
C:\PROGRAM FILES (X86)\WINDOWS KITS\10\REFERENCES\10.0.17134.0\WINDOWS.SYSTEM.PROFILE.PROFILESHAREDMODECONTRACT\2.0.0.0\WINDOWS.SYSTEM.PROFILE.PROFILESHAREDMODECONTRACT.WINMD
C:\PROGRAM FILES (X86)\WINDOWS KITS\10\REFERENCES\10.0.17134.0\WINDOWS.UI.VIEWMANAGEMENT.VIEWMANAGEMENTVIEWSCALINGCONTRACT\1.0.0.0\WINDOWS.UI.VIEWMANAGEMENT.VIEWMANAGEMENTVIEWSCALINGCONTRACT.WINMD
C:\USERS\MORITZ\DOCUMENTS\UNTITELEDGAME\GAME\DEBUG\PCH.OBJ
C:\USERS\MORITZ\DOCUMENTS\UNTITELEDGAME\GAME\COMMON\DEVICERESOURCES.H
C:\USERS\MORITZ\DOCUMENTS\UNTITELEDGAME\GAME\COMMON\DIRECTXHELPER.H
C:\PROGRAM FILES (X86)\MICROSOFT VISUAL STUDIO\2017\COMMUNITY\VC\TOOLS\MSVC\14.15.26726\INCLUDE\PPLTASKS.H
C:\PROGRAM FILES (X86)\MICROSOFT VISUAL STUDIO\2017\COMMUNITY\VC\TOOLS\MSVC\14.15.26726\INCLUDE\PPLWIN.H
C:\PROGRAM FILES (X86)\MICROSOFT VISUAL STUDIO\2017\COMMUNITY\VC\TOOLS\MSVC\14.15.26726\INCLUDE\CONDITION_VARIABLE
C:\PROGRAM FILES (X86)\MICROSOFT VISUAL STUDIO\2017\COMMUNITY\VC\TOOLS\MSVC\14.15.26726\INCLUDE\THR\XTHREAD
C:\PROGRAM FILES (X86)\MICROSOFT VISUAL STUDIO\2017\COMMUNITY\VC\TOOLS\MSVC\14.15.26726\INCLUDE\THR\XTHRCOMMON.H
C:\PROGRAM FILES (X86)\MICROSOFT VISUAL STUDIO\2017\COMMUNITY\VC\TOOLS\MSVC\14.15.26726\INCLUDE\THR\XTIME
C:\PROGRAM FILES (X86)\MICROSOFT VISUAL STUDIO\2017\COMMUNITY\VC\TOOLS\MSVC\14.15.26726\INCLUDE\THR\XTIMEC.H
C:\PROGRAM FILES (X86)\WINDOWS KITS\10\INCLUDE\10.0.17134.0\UCRT\TIME.H
C:\PROGRAM FILES (X86)\MICROSOFT VISUAL STUDIO\2017\COMMUNITY\VC\TOOLS\MSVC\14.15.26726\INCLUDE\THR\XTHREADS.H
C:\PROGRAM FILES (X86)\MICROSOFT VISUAL STUDIO\2017\COMMUNITY\VC\TOOLS\MSVC\14.15.26726\INCLUDE\TUPLE
C:\PROGRAM FILES (X86)\MICROSOFT VISUAL STUDIO\2017\COMMUNITY\VC\TOOLS\MSVC\14.15.26726\INCLUDE\MUTEX
C:\PROGRAM FILES (X86)\MICROSOFT VISUAL STUDIO\2017\COMMUNITY\VC\TOOLS\MSVC\14.15.26726\INCLUDE\CHRONO
C:\PROGRAM FILES (X86)\MICROSOFT VISUAL STUDIO\2017\COMMUNITY\VC\TOOLS\MSVC\14.15.26726\INCLUDE\RATIO
C:\PROGRAM FILES (X86)\MICROSOFT VISUAL STUDIO\2017\COMMUNITY\VC\TOOLS\MSVC\14.15.26726\INCLUDE\FUNCTIONAL
C:\PROGRAM FILES (X86)\MICROSOFT VISUAL STUDIO\2017\COMMUNITY\VC\TOOLS\MSVC\14.15.26726\INCLUDE\SYSTEM_ERROR
C:\PROGRAM FILES (X86)\MICROSOFT VISUAL STUDIO\2017\COMMUNITY\VC\TOOLS\MSVC\14.15.26726\INCLUDE\CERRNO
C:\PROGRAM FILES (X86)\MICROSOFT VISUAL STUDIO\2017\COMMUNITY\VC\TOOLS\MSVC\14.15.26726\INCLUDE\XCALL_ONCE.H
C:\PROGRAM FILES (X86)\MICROSOFT VISUAL STUDIO\2017\COMMUNITY\VC\TOOLS\MSVC\14.15.26726\INCLUDE\XERRC.H
C:\PROGRAM FILES (X86)\MICROSOFT VISUAL STUDIO\2017\COMMUNITY\VC\TOOLS\MSVC\14.15.26726\INCLUDE\THREAD
C:\PROGRAM FILES (X86)\MICROSOFT VISUAL STUDIO\2017\COMMUNITY\VC\TOOLS\MSVC\14.15.26726\INCLUDE\PPLTASKSCHEDULER.H
C:\PROGRAM FILES (X86)\MICROSOFT VISUAL STUDIO\2017\COMMUNITY\VC\TOOLS\MSVC\14.15.26726\INCLUDE\CRTDEFS.H
C:\PROGRAM FILES (X86)\MICROSOFT VISUAL STUDIO\2017\COMMUNITY\VC\TOOLS\MSVC\14.15.26726\INCLUDE\PPLCANCELLATION_TOKEN.H
